{
"meta":{"test_sets":[],"test_metrics":[],"learn_metrics":[{"best_value":"Min","name":"RMSE"}],"launch_mode":"Train","parameters":"","iteration_count":1000,"learn_sets":["learn"],"name":"experiment"},
"iterations":[
{"learn":[14.59871775],"iteration":0,"passed_time":0.1420695973,"remaining_time":141.9275277},
{"learn":[14.22518863],"iteration":1,"passed_time":0.1477052043,"remaining_time":73.70489694},
{"learn":[13.8866124],"iteration":2,"passed_time":0.1517574975,"remaining_time":50.434075},
{"learn":[13.52356875],"iteration":3,"passed_time":0.1568797795,"remaining_time":39.0630651},
{"learn":[13.18870211],"iteration":4,"passed_time":0.1633248079,"remaining_time":32.50163678},
{"learn":[12.9124226],"iteration":5,"passed_time":0.170357995,"remaining_time":28.22264118},
{"learn":[12.60003351],"iteration":6,"passed_time":0.1973263685,"remaining_time":27.99215484},
{"learn":[12.32990573],"iteration":7,"passed_time":0.2043961334,"remaining_time":25.34512054},
{"learn":[12.0660619],"iteration":8,"passed_time":0.2079687646,"remaining_time":22.89967175},
{"learn":[11.77309809],"iteration":9,"passed_time":0.2114923435,"remaining_time":20.937742},
{"learn":[11.49227636],"iteration":10,"passed_time":0.2145320796,"remaining_time":19.28838425},
{"learn":[11.26264833],"iteration":11,"passed_time":0.2174164608,"remaining_time":17.90062194},
{"learn":[11.04260393],"iteration":12,"passed_time":0.2198416869,"remaining_time":16.6910573},
{"learn":[10.79916926],"iteration":13,"passed_time":0.2218786596,"remaining_time":15.62659703},
{"learn":[10.5541002],"iteration":14,"passed_time":0.2239775643,"remaining_time":14.70786005},
{"learn":[10.31918115],"iteration":15,"passed_time":0.2385102565,"remaining_time":14.66838077},
{"learn":[10.10004441],"iteration":16,"passed_time":0.2403126331,"remaining_time":13.89572461},
{"learn":[9.894556723],"iteration":17,"passed_time":0.2419798067,"remaining_time":13.20134279},
{"learn":[9.690174082],"iteration":18,"passed_time":0.2442517332,"remaining_time":12.61110265},
{"learn":[9.506034866],"iteration":19,"passed_time":0.2459777318,"remaining_time":12.05290886},
{"learn":[9.338524633],"iteration":20,"passed_time":0.247703097,"remaining_time":11.54768247},
{"learn":[9.170203312],"iteration":21,"passed_time":0.249374888,"remaining_time":11.08584729},
{"learn":[9.010299969],"iteration":22,"passed_time":0.2509460988,"remaining_time":10.65975385},
{"learn":[8.843866678],"iteration":23,"passed_time":0.2524544366,"remaining_time":10.26648042},
{"learn":[8.690548059],"iteration":24,"passed_time":0.2541028755,"remaining_time":9.910012144},
{"learn":[8.555307687],"iteration":25,"passed_time":0.2553535879,"remaining_time":9.565938253},
{"learn":[8.413851302],"iteration":26,"passed_time":0.2564437241,"remaining_time":9.241471982},
{"learn":[8.29256019],"iteration":27,"passed_time":0.2578890617,"remaining_time":8.952434569},
{"learn":[8.162193833],"iteration":28,"passed_time":0.2589058401,"remaining_time":8.668881749},
{"learn":[8.040736294],"iteration":29,"passed_time":0.2598073334,"remaining_time":8.400437113},
{"learn":[7.921220278],"iteration":30,"passed_time":0.260769086,"remaining_time":8.151136914},
{"learn":[7.809589039],"iteration":31,"passed_time":0.2617357782,"remaining_time":7.917507292},
{"learn":[7.699675801],"iteration":32,"passed_time":0.2627241138,"remaining_time":7.698612669},
{"learn":[7.60645267],"iteration":33,"passed_time":0.2638280718,"remaining_time":7.495821098},
{"learn":[7.498880302],"iteration":34,"passed_time":0.2651526996,"remaining_time":7.310638718},
{"learn":[7.401158744],"iteration":35,"passed_time":0.266448778,"remaining_time":7.134906166},
{"learn":[7.306431077],"iteration":36,"passed_time":0.2678942856,"remaining_time":6.972491811},
{"learn":[7.223863468],"iteration":37,"passed_time":0.2733358095,"remaining_time":6.919711809},
{"learn":[7.143477682],"iteration":38,"passed_time":0.2749924778,"remaining_time":6.776096696},
{"learn":[7.062817131],"iteration":39,"passed_time":0.276212723,"remaining_time":6.629105352},
{"learn":[6.990793435],"iteration":40,"passed_time":0.2776497545,"remaining_time":6.494295478},
{"learn":[6.931862224],"iteration":41,"passed_time":0.2787691252,"remaining_time":6.358590999},
{"learn":[6.858296558],"iteration":42,"passed_time":0.279754471,"remaining_time":6.22616346},
{"learn":[6.786268161],"iteration":43,"passed_time":0.2806653425,"remaining_time":6.098092441},
{"learn":[6.717118549],"iteration":44,"passed_time":0.281692829,"remaining_time":5.978147816},
{"learn":[6.652948106],"iteration":45,"passed_time":0.2826982111,"remaining_time":5.862915073},
{"learn":[6.589686076],"iteration":46,"passed_time":0.2837971483,"remaining_time":5.754440049},
{"learn":[6.531283097],"iteration":47,"passed_time":0.2851537126,"remaining_time":5.655548634},
{"learn":[6.471368031],"iteration":48,"passed_time":0.2867461757,"remaining_time":5.565216594},
{"learn":[6.416481395],"iteration":49,"passed_time":0.2877311932,"remaining_time":5.466892671},
{"learn":[6.369870822],"iteration":50,"passed_time":0.2887381752,"remaining_time":5.372794672},
{"learn":[6.325678067],"iteration":51,"passed_time":0.2898500775,"remaining_time":5.284189875},
{"learn":[6.275766122],"iteration":52,"passed_time":0.291013456,"remaining_time":5.199806468},
{"learn":[6.224773967],"iteration":53,"passed_time":0.2919268322,"remaining_time":5.114125617},
{"learn":[6.182249254],"iteration":54,"passed_time":0.292847939,"remaining_time":5.031660043},
{"learn":[6.139904173],"iteration":55,"passed_time":0.2937932323,"remaining_time":4.952514488},
{"learn":[6.100525536],"iteration":56,"passed_time":0.294660276,"remaining_time":4.874818251},
{"learn":[6.062568564],"iteration":57,"passed_time":0.295526137,"remaining_time":4.799752087},
{"learn":[6.030559288],"iteration":58,"passed_time":0.2963652706,"remaining_time":4.726774909},
{"learn":[5.997931376],"iteration":59,"passed_time":0.2973141014,"remaining_time":4.657920922},
{"learn":[5.964103835],"iteration":60,"passed_time":0.298216258,"remaining_time":4.590574856},
{"learn":[5.933729724],"iteration":61,"passed_time":0.299507665,"remaining_time":4.531261126},
{"learn":[5.901932711],"iteration":62,"passed_time":0.3006033269,"remaining_time":4.470878053},
{"learn":[5.873727795],"iteration":63,"passed_time":0.3015572201,"remaining_time":4.410274344},
{"learn":[5.846485734],"iteration":64,"passed_time":0.3025273649,"remaining_time":4.351739787},
{"learn":[5.820630862],"iteration":65,"passed_time":0.3035013899,"remaining_time":4.295004518},
{"learn":[5.793646238],"iteration":66,"passed_time":0.304383558,"remaining_time":4.238654621},
{"learn":[5.765388646],"iteration":67,"passed_time":0.3054497555,"remaining_time":4.186458413},
{"learn":[5.747073912],"iteration":68,"passed_time":0.3065107844,"remaining_time":4.135674497},
{"learn":[5.722315217],"iteration":69,"passed_time":0.3074054182,"remaining_time":4.084100557},
{"learn":[5.699970599],"iteration":70,"passed_time":0.3082821017,"remaining_time":4.033719331},
{"learn":[5.682732647],"iteration":71,"passed_time":0.3091623572,"remaining_time":3.984759271},
{"learn":[5.663525791],"iteration":72,"passed_time":0.3100503315,"remaining_time":3.937214484},
{"learn":[5.642381613],"iteration":73,"passed_time":0.3108581664,"remaining_time":3.889927865},
{"learn":[5.621404779],"iteration":74,"passed_time":0.3117383157,"remaining_time":3.84477256},
{"learn":[5.602460129],"iteration":75,"passed_time":0.3125703698,"remaining_time":3.800197654},
{"learn":[5.587337574],"iteration":76,"passed_time":0.3147490862,"remaining_time":3.772901384},
{"learn":[5.572393026],"iteration":77,"passed_time":0.3162243927,"remaining_time":3.737934488},
{"learn":[5.558425806],"iteration":78,"passed_time":0.3172911001,"remaining_time":3.699051939},
{"learn":[5.541518902],"iteration":79,"passed_time":0.3182963883,"remaining_time":3.660408465},
{"learn":[5.526157283],"iteration":80,"passed_time":0.3193830098,"remaining_time":3.623617111},
{"learn":[5.511746977],"iteration":81,"passed_time":0.3202632719,"remaining_time":3.585386385},
{"learn":[5.504975022],"iteration":82,"passed_time":0.3206891024,"remaining_time":3.543035023},
{"learn":[5.493980522],"iteration":83,"passed_time":0.3215610757,"remaining_time":3.506546968},
{"learn":[5.480745463],"iteration":84,"passed_time":0.3223892773,"remaining_time":3.47042575},
{"learn":[5.464052013],"iteration":85,"passed_time":0.3232347515,"remaining_time":3.435308871},
{"learn":[5.449143727],"iteration":86,"passed_time":0.3241446097,"remaining_time":3.401655502},
{"learn":[5.438255432],"iteration":87,"passed_time":0.324979222,"remaining_time":3.367966482},
{"learn":[5.425927931],"iteration":88,"passed_time":0.3259445643,"remaining_time":3.336353911},
{"learn":[5.412331217],"iteration":89,"passed_time":0.3268759692,"remaining_time":3.305079245},
{"learn":[5.400691499],"iteration":90,"passed_time":0.3279703901,"remaining_time":3.276099831},
{"learn":[5.391618744],"iteration":91,"passed_time":0.3293081359,"remaining_time":3.250128124},
{"learn":[5.380766572],"iteration":92,"passed_time":0.3302874427,"remaining_time":3.221190436},
{"learn":[5.372207183],"iteration":93,"passed_time":0.3312413131,"remaining_time":3.192602444},
{"learn":[5.362918837],"iteration":94,"passed_time":0.3321724414,"remaining_time":3.164379573},
{"learn":[5.348292324],"iteration":95,"passed_time":0.3332443629,"remaining_time":3.138051084},
{"learn":[5.339772295],"iteration":96,"passed_time":0.3342500177,"remaining_time":3.111626454},
{"learn":[5.331515983],"iteration":97,"passed_time":0.3351153121,"remaining_time":3.084428689},
{"learn":[5.323861644],"iteration":98,"passed_time":0.3359451825,"remaining_time":3.057440499},
{"learn":[5.313277281],"iteration":99,"passed_time":0.3367636621,"remaining_time":3.030872959},
{"learn":[5.30685627],"iteration":100,"passed_time":0.3375491364,"remaining_time":3.004521521},
{"learn":[5.29652059],"iteration":101,"passed_time":0.338399553,"remaining_time":2.979243123},
{"learn":[5.288350766],"iteration":102,"passed_time":0.3392378289,"remaining_time":2.954333325},
{"learn":[5.27993346],"iteration":103,"passed_time":0.3400839719,"remaining_time":2.929954219},
{"learn":[5.271789139],"iteration":104,"passed_time":0.3409541426,"remaining_time":2.906228168},
{"learn":[5.262684686],"iteration":105,"passed_time":0.3419569776,"remaining_time":2.884052245},
{"learn":[5.251619772],"iteration":106,"passed_time":0.3434014142,"remaining_time":2.865957597},
{"learn":[5.241012171],"iteration":107,"passed_time":0.3446485246,"remaining_time":2.846541518},
{"learn":[5.232684032],"iteration":108,"passed_time":0.3456258343,"remaining_time":2.82525338},
{"learn":[5.224267141],"iteration":109,"passed_time":0.3466051228,"remaining_time":2.804350539},
{"learn":[5.216324968],"iteration":110,"passed_time":0.3475081138,"remaining_time":2.783195614},
{"learn":[5.211102527],"iteration":111,"passed_time":0.3484402909,"remaining_time":2.762633735},
{"learn":[5.206364257],"iteration":112,"passed_time":0.349466172,"remaining_time":2.743154819},
{"learn":[5.196937641],"iteration":113,"passed_time":0.3503773456,"remaining_time":2.723108142},
{"learn":[5.190746047],"iteration":114,"passed_time":0.3513249621,"remaining_time":2.703674708},
{"learn":[5.181885213],"iteration":115,"passed_time":0.3522142596,"remaining_time":2.684115565},
{"learn":[5.178293568],"iteration":116,"passed_time":0.3529182829,"remaining_time":2.663477297},
{"learn":[5.170991438],"iteration":117,"passed_time":0.3537448002,"remaining_time":2.64409249},
{"learn":[5.166257212],"iteration":118,"passed_time":0.3545499047,"remaining_time":2.624861059},
{"learn":[5.161421246],"iteration":119,"passed_time":0.3554309057,"remaining_time":2.606493308},
{"learn":[5.158223542],"iteration":120,"passed_time":0.3563000353,"remaining_time":2.588328356},
{"learn":[5.15470988],"iteration":121,"passed_time":0.3569621517,"remaining_time":2.568957125},
{"learn":[5.146388143],"iteration":122,"passed_time":0.3583227691,"remaining_time":2.554870476},
{"learn":[5.139529364],"iteration":123,"passed_time":0.3596027915,"remaining_time":2.54041972},
{"learn":[5.134276023],"iteration":124,"passed_time":0.3606277943,"remaining_time":2.52439456},
{"learn":[5.128536065],"iteration":125,"passed_time":0.3615607285,"remaining_time":2.507968863},
{"learn":[5.123300353],"iteration":126,"passed_time":0.3622827221,"remaining_time":2.490337137},
{"learn":[5.116200518],"iteration":127,"passed_time":0.3631565747,"remaining_time":2.474004165},
{"learn":[5.108728704],"iteration":128,"passed_time":0.3640160345,"remaining_time":2.45781369},
{"learn":[5.104075866],"iteration":129,"passed_time":0.3648468704,"remaining_time":2.441667517},
{"learn":[5.100317606],"iteration":130,"passed_time":0.365711812,"remaining_time":2.425981409},
{"learn":[5.095814182],"iteration":131,"passed_time":0.3665543237,"remaining_time":2.410372371},
{"learn":[5.092146915],"iteration":132,"passed_time":0.367388146,"remaining_time":2.394928741},
{"learn":[5.085258329],"iteration":133,"passed_time":0.3682469986,"remaining_time":2.379864931},
{"learn":[5.079219421],"iteration":134,"passed_time":0.369228843,"remaining_time":2.365799624},
{"learn":[5.076476829],"iteration":135,"passed_time":0.3701782405,"remaining_time":2.351720586},
{"learn":[5.072133867],"iteration":136,"passed_time":0.3710128338,"remaining_time":2.337110041},
{"learn":[5.067031564],"iteration":137,"passed_time":0.3718966912,"remaining_time":2.323006868},
{"learn":[5.061358312],"iteration":138,"passed_time":0.3737693992,"remaining_time":2.315219084},
{"learn":[5.056759124],"iteration":139,"passed_time":0.3748630712,"remaining_time":2.302730295},
{"learn":[5.050254],"iteration":140,"passed_time":0.3758686911,"remaining_time":2.289866707},
{"learn":[5.048376474],"iteration":141,"passed_time":0.3765851256,"remaining_time":2.275422801},
{"learn":[5.042603751],"iteration":142,"passed_time":0.3776744463,"remaining_time":2.263405598},
{"learn":[5.037477349],"iteration":143,"passed_time":0.3786595327,"remaining_time":2.250920556},
{"learn":[5.03230489],"iteration":144,"passed_time":0.3796894352,"remaining_time":2.238858394},
{"learn":[5.025976187],"iteration":145,"passed_time":0.3806571784,"remaining_time":2.22658377},
{"learn":[5.01952451],"iteration":146,"passed_time":0.3815817744,"remaining_time":2.214212609},
{"learn":[5.017569424],"iteration":147,"passed_time":0.3825179001,"remaining_time":2.202062506},
{"learn":[5.008962367],"iteration":148,"passed_time":0.3834217754,"remaining_time":2.189878731},
{"learn":[5.003880266],"iteration":149,"passed_time":0.3842681312,"remaining_time":2.17751941},
{"learn":[4.996387564],"iteration":150,"passed_time":0.3850835638,"remaining_time":2.165138713},
{"learn":[4.993361683],"iteration":151,"passed_time":0.3859558893,"remaining_time":2.153227593},
{"learn":[4.99005752],"iteration":152,"passed_time":0.3869813577,"remaining_time":2.142308562},
{"learn":[4.986908764],"iteration":153,"passed_time":0.3880978002,"remaining_time":2.132017786},
{"learn":[4.985207175],"iteration":154,"passed_time":0.3891581059,"remaining_time":2.121539352},
{"learn":[4.979003494],"iteration":155,"passed_time":0.3901632008,"remaining_time":2.110882958},
{"learn":[4.973142217],"iteration":156,"passed_time":0.3910956995,"remaining_time":2.099959711},
{"learn":[4.967056696],"iteration":157,"passed_time":0.3920529924,"remaining_time":2.089295061},
{"learn":[4.961460696],"iteration":158,"passed_time":0.3930396332,"remaining_time":2.078907745},
{"learn":[4.954240363],"iteration":159,"passed_time":0.3939467433,"remaining_time":2.068220402},
{"learn":[4.952320707],"iteration":160,"passed_time":0.3944933651,"remaining_time":2.055775984},
{"learn":[4.948337777],"iteration":161,"passed_time":0.3954040138,"remaining_time":2.045361504},
{"learn":[4.943228639],"iteration":162,"passed_time":0.3964304604,"remaining_time":2.035658254},
{"learn":[4.938545759],"iteration":163,"passed_time":0.3973721318,"remaining_time":2.025628672},
{"learn":[4.935330572],"iteration":164,"passed_time":0.3982248293,"remaining_time":2.015258985},
{"learn":[4.932051543],"iteration":165,"passed_time":0.3990757459,"remaining_time":2.004995013},
{"learn":[4.928964153],"iteration":166,"passed_time":0.3999369611,"remaining_time":1.994895142},
{"learn":[4.922860227],"iteration":167,"passed_time":0.4007449404,"remaining_time":1.98464161},
{"learn":[4.917668772],"iteration":168,"passed_time":0.4019551514,"remaining_time":1.976477697},
{"learn":[4.910365386],"iteration":169,"passed_time":0.4033803866,"remaining_time":1.969445417},
{"learn":[4.906457206],"iteration":170,"passed_time":0.4045042325,"remaining_time":1.961017595},
{"learn":[4.901996508],"iteration":171,"passed_time":0.4055305036,"remaining_time":1.952204982},
{"learn":[4.896816173],"iteration":172,"passed_time":0.4064297742,"remaining_time":1.942875279},
{"learn":[4.891123132],"iteration":173,"passed_time":0.4072993488,"remaining_time":1.933501507},
{"learn":[4.887630202],"iteration":174,"passed_time":0.4081172613,"remaining_time":1.923981374},
{"learn":[4.885259712],"iteration":175,"passed_time":0.4089277314,"remaining_time":1.914525288},
{"learn":[4.880659728],"iteration":176,"passed_time":0.4097866041,"remaining_time":1.90539195},
{"learn":[4.877299723],"iteration":177,"passed_time":0.4106175227,"remaining_time":1.896222493},
{"learn":[4.874038772],"iteration":178,"passed_time":0.4115175067,"remaining_time":1.887462978},
{"learn":[4.86943698],"iteration":179,"passed_time":0.4123556987,"remaining_time":1.878509294},
{"learn":[4.861268711],"iteration":180,"passed_time":0.4132976994,"remaining_time":1.870115005},
{"learn":[4.858673056],"iteration":181,"passed_time":0.414355147,"remaining_time":1.862321485},
{"learn":[4.854036207],"iteration":182,"passed_time":0.415339484,"remaining_time":1.854275183},
{"learn":[4.85130244],"iteration":183,"passed_time":0.4171290761,"remaining_time":1.849876772},
{"learn":[4.847510084],"iteration":184,"passed_time":0.4185012042,"remaining_time":1.843667467},
{"learn":[4.845691673],"iteration":185,"passed_time":0.4195122892,"remaining_time":1.835930126},
{"learn":[4.842058646],"iteration":186,"passed_time":0.4205494655,"remaining_time":1.828378158},
{"learn":[4.838623675],"iteration":187,"passed_time":0.4214755636,"remaining_time":1.820415732},
{"learn":[4.834602161],"iteration":188,"passed_time":0.4225667203,"remaining_time":1.813236033},
{"learn":[4.830858976],"iteration":189,"passed_time":0.4234307509,"remaining_time":1.805152149},
{"learn":[4.827590511],"iteration":190,"passed_time":0.4242923028,"remaining_time":1.797133366},
{"learn":[4.822246226],"iteration":191,"passed_time":0.4251478901,"remaining_time":1.789164037},
{"learn":[4.816686395],"iteration":192,"passed_time":0.4259772044,"remaining_time":1.78115857},
{"learn":[4.814797121],"iteration":193,"passed_time":0.4268012386,"remaining_time":1.773205146},
{"learn":[4.811639392],"iteration":194,"passed_time":0.4276461762,"remaining_time":1.765411137},
{"learn":[4.804813432],"iteration":195,"passed_time":0.4284574885,"remaining_time":1.757550106},
{"learn":[4.80251613],"iteration":196,"passed_time":0.429394828,"remaining_time":1.75027435},
{"learn":[4.800087884],"iteration":197,"passed_time":0.4303148704,"remaining_time":1.742992556},
{"learn":[4.794773135],"iteration":198,"passed_time":0.4319139347,"remaining_time":1.738507848},
{"learn":[4.791664833],"iteration":199,"passed_time":0.4329562195,"remaining_time":1.731824878},
{"learn":[4.785989873],"iteration":200,"passed_time":0.433952144,"remaining_time":1.725013746},
{"learn":[4.782387142],"iteration":201,"passed_time":0.4349931056,"remaining_time":1.71843811},
{"learn":[4.778623704],"iteration":202,"passed_time":0.4359090822,"remaining_time":1.711426298},
{"learn":[4.775772178],"iteration":203,"passed_time":0.4368228529,"remaining_time":1.704465642},
{"learn":[4.77023101],"iteration":204,"passed_time":0.437778741,"remaining_time":1.697727313},
{"learn":[4.764496689],"iteration":205,"passed_time":0.4386167869,"remaining_time":1.690590916},
{"learn":[4.763138716],"iteration":206,"passed_time":0.4397229485,"remaining_time":1.684542503},
{"learn":[4.758053283],"iteration":207,"passed_time":0.4410641562,"remaining_time":1.679436595},
{"learn":[4.755063788],"iteration":208,"passed_time":0.4423391329,"remaining_time":1.674116048},
{"learn":[4.752465267],"iteration":209,"passed_time":0.4436694714,"remaining_time":1.669042297},
{"learn":[4.748067377],"iteration":210,"passed_time":0.444764215,"remaining_time":1.66312306},
{"learn":[4.744163298],"iteration":211,"passed_time":0.4463693711,"remaining_time":1.65914653},
{"learn":[4.736670896],"iteration":212,"passed_time":0.447605279,"remaining_time":1.653827956},
{"learn":[4.73349255],"iteration":213,"passed_time":0.4488547926,"remaining_time":1.648597509},
{"learn":[4.731864595],"iteration":214,"passed_time":0.4499410391,"remaining_time":1.64280798},
{"learn":[4.728398311],"iteration":215,"passed_time":0.4509958668,"remaining_time":1.636947961},
{"learn":[4.723865975],"iteration":216,"passed_time":0.4522035891,"remaining_time":1.631683918},
{"learn":[4.723483365],"iteration":217,"passed_time":0.4531101859,"remaining_time":1.625376905},
{"learn":[4.72095416],"iteration":218,"passed_time":0.4541295025,"remaining_time":1.619521194},
{"learn":[4.716173382],"iteration":219,"passed_time":0.4553654749,"remaining_time":1.614477593},
{"learn":[4.710563974],"iteration":220,"passed_time":0.4564155791,"remaining_time":1.608813286},
{"learn":[4.707160263],"iteration":221,"passed_time":0.4574500301,"remaining_time":1.603135691},
{"learn":[4.70408351],"iteration":222,"passed_time":0.458522927,"remaining_time":1.597633696},
{"learn":[4.702501831],"iteration":223,"passed_time":0.4596793038,"remaining_time":1.592460445},
{"learn":[4.700269738],"iteration":224,"passed_time":0.461473356,"remaining_time":1.589519337},
{"learn":[4.695346302],"iteration":225,"passed_time":0.4629879395,"remaining_time":1.585631262},
{"learn":[4.689769299],"iteration":226,"passed_time":0.4640103114,"remaining_time":1.580087977},
{"learn":[4.687919514],"iteration":227,"passed_time":0.4653200076,"remaining_time":1.575557219},
{"learn":[4.682982074],"iteration":228,"passed_time":0.4663343335,"remaining_time":1.570060136},
{"learn":[4.679578702],"iteration":229,"passed_time":0.4674189223,"remaining_time":1.564837262},
{"learn":[4.675751423],"iteration":230,"passed_time":0.4684899111,"remaining_time":1.559604942},
{"learn":[4.672710726],"iteration":231,"passed_time":0.4694579493,"remaining_time":1.554067694},
{"learn":[4.6690533],"iteration":232,"passed_time":0.4704729007,"remaining_time":1.548724098},
{"learn":[4.667595702],"iteration":233,"passed_time":0.4713455228,"remaining_time":1.542951583},
{"learn":[4.664241291],"iteration":234,"passed_time":0.4722835722,"remaining_time":1.537433756},
{"learn":[4.662246999],"iteration":235,"passed_time":0.473257855,"remaining_time":1.532072039},
{"learn":[4.658668443],"iteration":236,"passed_time":0.4745074724,"remaining_time":1.527633762},
{"learn":[4.658017572],"iteration":237,"passed_time":0.4762223774,"remaining_time":1.524711981},
{"learn":[4.657656705],"iteration":238,"passed_time":0.4772435005,"remaining_time":1.51959123},
{"learn":[4.653242871],"iteration":239,"passed_time":0.4782426736,"remaining_time":1.514435133},
{"learn":[4.6507302],"iteration":240,"passed_time":0.4791492165,"remaining_time":1.509021806},
{"learn":[4.647671336],"iteration":241,"passed_time":0.4802089617,"remaining_time":1.504125591},
{"learn":[4.645506007],"iteration":242,"passed_time":0.4812172641,"remaining_time":1.499100695},
{"learn":[4.641297906],"iteration":243,"passed_time":0.4821498795,"remaining_time":1.493874217},
{"learn":[4.63798107],"iteration":244,"passed_time":0.4830264135,"remaining_time":1.488509968},
{"learn":[4.635062318],"iteration":245,"passed_time":0.4838559767,"remaining_time":1.483038238},
{"learn":[4.631606017],"iteration":246,"passed_time":0.484664296,"remaining_time":1.477539331},
{"learn":[4.630215494],"iteration":247,"passed_time":0.485485667,"remaining_time":1.472117829},
{"learn":[4.62729814],"iteration":248,"passed_time":0.4863620228,"remaining_time":1.466899113},
{"learn":[4.624691756],"iteration":249,"passed_time":0.4871976555,"remaining_time":1.461592966},
{"learn":[4.621840053],"iteration":250,"passed_time":0.4880314017,"remaining_time":1.456316812},
{"learn":[4.619602091],"iteration":251,"passed_time":0.4890471724,"remaining_time":1.45161621},
{"learn":[4.613584029],"iteration":252,"passed_time":0.4904311275,"remaining_time":1.448031827},
{"learn":[4.6119388],"iteration":253,"passed_time":0.4914224067,"remaining_time":1.443311478},
{"learn":[4.60870702],"iteration":254,"passed_time":0.4924544412,"remaining_time":1.438739446},
{"learn":[4.604771557],"iteration":255,"passed_time":0.4934870524,"remaining_time":1.434196746},
{"learn":[4.604231277],"iteration":256,"passed_time":0.4945180719,"remaining_time":1.42967676},
{"learn":[4.600750354],"iteration":257,"passed_time":0.4954970738,"remaining_time":1.42503422},
{"learn":[4.596488253],"iteration":258,"passed_time":0.4965480552,"remaining_time":1.420625903},
{"learn":[4.59470784],"iteration":259,"passed_time":0.4978090529,"remaining_time":1.416841151},
{"learn":[4.588818005],"iteration":260,"passed_time":0.499002644,"remaining_time":1.412884881},
{"learn":[4.585054174],"iteration":261,"passed_time":0.5001758961,"remaining_time":1.40889241},
{"learn":[4.581471435],"iteration":262,"passed_time":0.5012560409,"remaining_time":1.404660464},
{"learn":[4.577555199],"iteration":263,"passed_time":0.5025468496,"remaining_time":1.401039702},
{"learn":[4.57457145],"iteration":264,"passed_time":0.5036735703,"remaining_time":1.396981412},
{"learn":[4.573029224],"iteration":265,"passed_time":0.5049198769,"remaining_time":1.393275149},
{"learn":[4.571326203],"iteration":266,"passed_time":0.5059159786,"remaining_time":1.388900421},
{"learn":[4.571019224],"iteration":267,"passed_time":0.5069010899,"remaining_time":1.384520887},
{"learn":[4.565766631],"iteration":268,"passed_time":0.5078580535,"remaining_time":1.380090101},
{"learn":[4.563383471],"iteration":269,"passed_time":0.5088603986,"remaining_time":1.375807744},
{"learn":[4.558165805],"iteration":270,"passed_time":0.5098226695,"remaining_time":1.371441794},
{"learn":[4.55629209],"iteration":271,"passed_time":0.5107410459,"remaining_time":1.366983388},
{"learn":[4.549383848],"iteration":272,"passed_time":0.5119140014,"remaining_time":1.363228861},
{"learn":[4.546227503],"iteration":273,"passed_time":0.5128150808,"remaining_time":1.358772805},
{"learn":[4.540620977],"iteration":274,"passed_time":0.5137552862,"remaining_time":1.354445754},
{"learn":[4.532898237],"iteration":275,"passed_time":0.5147604972,"remaining_time":1.350313768},
{"learn":[4.529757367],"iteration":276,"passed_time":0.5157153614,"remaining_time":1.346072947},
{"learn":[4.52579294],"iteration":277,"passed_time":0.516681982,"remaining_time":1.341886299},
{"learn":[4.521572155],"iteration":278,"passed_time":0.5178487057,"remaining_time":1.338239845},
{"learn":[4.518818099],"iteration":279,"passed_time":0.5193361979,"remaining_time":1.335435937},
{"learn":[4.514012334],"iteration":280,"passed_time":0.5205109332,"remaining_time":1.331841142},
{"learn":[4.508331416],"iteration":281,"passed_time":0.5214491449,"remaining_time":1.327661298},
{"learn":[4.506038537],"iteration":282,"passed_time":0.5224291505,"remaining_time":1.323610251},
{"learn":[4.505805643],"iteration":283,"passed_time":0.523253738,"remaining_time":1.319189001},
{"learn":[4.501550352],"iteration":284,"passed_time":0.5242346175,"remaining_time":1.315185093},
{"learn":[4.494692643],"iteration":285,"passed_time":0.5251388422,"remaining_time":1.311010956},
{"learn":[4.489330245],"iteration":286,"passed_time":0.5260641959,"remaining_time":1.306912097},
{"learn":[4.484826955],"iteration":287,"passed_time":0.5270683014,"remaining_time":1.303029967},
{"learn":[4.478285428],"iteration":288,"passed_time":0.5280687028,"remaining_time":1.299158642},
{"learn":[4.475311671],"iteration":289,"passed_time":0.5294326227,"remaining_time":1.296197111},
{"learn":[4.471581298],"iteration":290,"passed_time":0.5309384329,"remaining_time":1.293592264},
{"learn":[4.469164956],"iteration":291,"passed_time":0.5319565518,"remaining_time":1.289812461},
{"learn":[4.462068024],"iteration":292,"passed_time":0.5336185313,"remaining_time":1.287605125},
{"learn":[4.458540976],"iteration":293,"passed_time":0.5352481638,"remaining_time":1.285323822},
{"learn":[4.455757458],"iteration":294,"passed_time":0.5362679887,"remaining_time":1.2815896},
{"learn":[4.453027414],"iteration":295,"passed_time":0.5373246485,"remaining_time":1.277961326},
{"learn":[4.450659338],"iteration":296,"passed_time":0.5385209145,"remaining_time":1.274680818},
{"learn":[4.444696901],"iteration":297,"passed_time":0.5396096774,"remaining_time":1.271161052},
{"learn":[4.442052813],"iteration":298,"passed_time":0.5405745831,"remaining_time":1.267367167},
{"learn":[4.440036756],"iteration":299,"passed_time":0.5414701213,"remaining_time":1.263430283},
{"learn":[4.435017051],"iteration":300,"passed_time":0.5425377148,"remaining_time":1.259913165},
{"learn":[4.429962125],"iteration":301,"passed_time":0.5436059893,"remaining_time":1.256413843},
{"learn":[4.427666256],"iteration":302,"passed_time":0.5445972975,"remaining_time":1.252753519},
{"learn":[4.425030004],"iteration":303,"passed_time":0.5455075457,"remaining_time":1.24892517},
{"learn":[4.422588771],"iteration":304,"passed_time":0.546365029,"remaining_time":1.244995722},
{"learn":[4.418936667],"iteration":305,"passed_time":0.5477499317,"remaining_time":1.242282525},
{"learn":[4.416887976],"iteration":306,"passed_time":0.5500102375,"remaining_time":1.241554054},
{"learn":[4.413773354],"iteration":307,"passed_time":0.5513736663,"remaining_time":1.238800575},
{"learn":[4.411129391],"iteration":308,"passed_time":0.5524817817,"remaining_time":1.235485149},
{"learn":[4.40850819],"iteration":309,"passed_time":0.5535665405,"remaining_time":1.232131977},
{"learn":[4.404880292],"iteration":310,"passed_time":0.5547868785,"remaining_time":1.22909376},
{"learn":[4.404593827],"iteration":311,"passed_time":0.5557953326,"remaining_time":1.225599964},
{"learn":[4.402139942],"iteration":312,"passed_time":0.5569694908,"remaining_time":1.222485751},
{"learn":[4.400284725],"iteration":313,"passed_time":0.5580283682,"remaining_time":1.21913204},
{"learn":[4.395805521],"iteration":314,"passed_time":0.5590302867,"remaining_time":1.215669036},
{"learn":[4.392838833],"iteration":315,"passed_time":0.5600108556,"remaining_time":1.212175396},
{"learn":[4.389213061],"iteration":316,"passed_time":0.5609252013,"remaining_time":1.208554929},
{"learn":[4.3861981],"iteration":317,"passed_time":0.5620236874,"remaining_time":1.205346399},
{"learn":[4.385054234],"iteration":318,"passed_time":0.5637844516,"remaining_time":1.203564927},
{"learn":[4.379364607],"iteration":319,"passed_time":0.5648948935,"remaining_time":1.200401649},
{"learn":[4.378387619],"iteration":320,"passed_time":0.5660699311,"remaining_time":1.197387798},
{"learn":[4.375816727],"iteration":321,"passed_time":0.5671804852,"remaining_time":1.194249593},
{"learn":[4.374600202],"iteration":322,"passed_time":0.5682472337,"remaining_time":1.191032128},
{"learn":[4.37098897],"iteration":323,"passed_time":0.5692925022,"remaining_time":1.187783122},
{"learn":[4.367418484],"iteration":324,"passed_time":0.57030355,"remaining_time":1.184476604},
{"learn":[4.363584638],"iteration":325,"passed_time":0.5715047133,"remaining_time":1.181577229},
{"learn":[4.360770706],"iteration":326,"passed_time":0.5724534219,"remaining_time":1.178168663},
{"learn":[4.358675808],"iteration":327,"passed_time":0.5734148012,"remaining_time":1.174801056},
{"learn":[4.354228195],"iteration":328,"passed_time":0.5746033383,"remaining_time":1.171911368},
{"learn":[4.353773425],"iteration":329,"passed_time":0.5755620395,"remaining_time":1.168565353},
{"learn":[4.351648009],"iteration":330,"passed_time":0.5765972398,"remaining_time":1.165388379},
{"learn":[4.348209927],"iteration":331,"passed_time":0.5782816721,"remaining_time":1.163530593},
{"learn":[4.345852733],"iteration":332,"passed_time":0.5798332988,"remaining_time":1.161407839},
{"learn":[4.34237339],"iteration":333,"passed_time":0.5808595732,"remaining_time":1.158240945},
{"learn":[4.340814362],"iteration":334,"passed_time":0.581968563,"remaining_time":1.155251028},
{"learn":[4.339707068],"iteration":335,"passed_time":0.5835268959,"remaining_time":1.153160294},
{"learn":[4.335430786],"iteration":336,"passed_time":0.584613433,"remaining_time":1.150144528},
{"learn":[4.33521887],"iteration":337,"passed_time":0.5855353314,"remaining_time":1.14681772},
{"learn":[4.328507238],"iteration":338,"passed_time":0.5864939181,"remaining_time":1.143576637},
{"learn":[4.326140732],"iteration":339,"passed_time":0.5874128084,"remaining_time":1.140271922},
{"learn":[4.323785636],"iteration":340,"passed_time":0.5884222463,"remaining_time":1.137156189},
{"learn":[4.320632534],"iteration":341,"passed_time":0.5893736625,"remaining_time":1.13394114},
{"learn":[4.31973724],"iteration":342,"passed_time":0.5903996058,"remaining_time":1.130882044},
{"learn":[4.318000924],"iteration":343,"passed_time":0.591361405,"remaining_time":1.127712447},
{"learn":[4.312713628],"iteration":344,"passed_time":0.5938905765,"remaining_time":1.127531384},
{"learn":[4.308220789],"iteration":345,"passed_time":0.5950507391,"remaining_time":1.124749085},
{"learn":[4.305890947],"iteration":346,"passed_time":0.5961876373,"remaining_time":1.121932355},
{"learn":[4.305137856],"iteration":347,"passed_time":0.597135076,"remaining_time":1.118770315},
{"learn":[4.304787172],"iteration":348,"passed_time":0.5982255155,"remaining_time":1.115887709},
{"learn":[4.30350134],"iteration":349,"passed_time":0.5992647789,"remaining_time":1.112920304},
{"learn":[4.30293809],"iteration":350,"passed_time":0.6001894116,"remaining_time":1.109751932},
{"learn":[4.299548459],"iteration":351,"passed_time":0.6012262029,"remaining_time":1.106802783},
{"learn":[4.294768408],"iteration":352,"passed_time":0.60248031,"remaining_time":1.104262778},
{"learn":[4.294581479],"iteration":353,"passed_time":0.6034006774,"remaining_time":1.10112101},
{"learn":[4.292551604],"iteration":354,"passed_time":0.6045118693,"remaining_time":1.098338467},
{"learn":[4.288628894],"iteration":355,"passed_time":0.6055076937,"remaining_time":1.095356615},
{"learn":[4.287802767],"iteration":356,"passed_time":0.6075478168,"remaining_time":1.094266796},
{"learn":[4.284566905],"iteration":357,"passed_time":0.6090757292,"remaining_time":1.092253123},
{"learn":[4.27890232],"iteration":358,"passed_time":0.6101531553,"remaining_time":1.089437807},
{"learn":[4.276938023],"iteration":359,"passed_time":0.6111245233,"remaining_time":1.086443597},
{"learn":[4.273425094],"iteration":360,"passed_time":0.6120521785,"remaining_time":1.083383219},
{"learn":[4.269726505],"iteration":361,"passed_time":0.613074081,"remaining_time":1.080500728},
{"learn":[4.265565857],"iteration":362,"passed_time":0.6140500703,"remaining_time":1.077547919},
{"learn":[4.262117173],"iteration":363,"passed_time":0.6152929171,"remaining_time":1.07507224},
{"learn":[4.259185148],"iteration":364,"passed_time":0.6163549049,"remaining_time":1.07228867},
{"learn":[4.257668507],"iteration":365,"passed_time":0.6172351859,"remaining_time":1.069199748},
{"learn":[4.253432436],"iteration":366,"passed_time":0.6181399973,"remaining_time":1.066165172},
{"learn":[4.250216667],"iteration":367,"passed_time":0.6190666192,"remaining_time":1.063179629},
{"learn":[4.24514828],"iteration":368,"passed_time":0.6199340807,"remaining_time":1.060104078},
{"learn":[4.244015772],"iteration":369,"passed_time":0.6210957142,"remaining_time":1.057541351},
{"learn":[4.240329192],"iteration":370,"passed_time":0.6226679444,"remaining_time":1.05568231},
{"learn":[4.236718014],"iteration":371,"passed_time":0.6237099659,"remaining_time":1.052929727},
{"learn":[4.233495944],"iteration":372,"passed_time":0.6248020537,"remaining_time":1.050270476},
{"learn":[4.230357491],"iteration":373,"passed_time":0.6258431758,"remaining_time":1.0475343},
{"learn":[4.227381215],"iteration":374,"passed_time":0.626814991,"remaining_time":1.044691652},
{"learn":[4.226169067],"iteration":375,"passed_time":0.6278306806,"remaining_time":1.041931768},
{"learn":[4.225963861],"iteration":376,"passed_time":0.6287992138,"remaining_time":1.03910321},
{"learn":[4.224346548],"iteration":377,"passed_time":0.6296912523,"remaining_time":1.036158621},
{"learn":[4.222595381],"iteration":378,"passed_time":0.6305253285,"remaining_time":1.033129892},
{"learn":[4.219700938],"iteration":379,"passed_time":0.6313871681,"remaining_time":1.030158011},
{"learn":[4.216356207],"iteration":380,"passed_time":0.6322485511,"remaining_time":1.027196465},
{"learn":[4.214326494],"iteration":381,"passed_time":0.633081399,"remaining_time":1.02419975},
{"learn":[4.212901398],"iteration":382,"passed_time":0.6339631511,"remaining_time":1.021293118},
{"learn":[4.211331091],"iteration":383,"passed_time":0.6348896647,"remaining_time":1.018468837},
{"learn":[4.208624791],"iteration":384,"passed_time":0.636742443,"remaining_time":1.017134032},
{"learn":[4.204659106],"iteration":385,"passed_time":0.6383960354,"remaining_time":1.015479704},
{"learn":[4.202968852],"iteration":386,"passed_time":0.6393644892,"remaining_time":1.012740134},
{"learn":[4.197261935],"iteration":387,"passed_time":0.6403590893,"remaining_time":1.010050935},
{"learn":[4.196934403],"iteration":388,"passed_time":0.6411648771,"remaining_time":1.007073881},
{"learn":[4.192479929],"iteration":389,"passed_time":0.6420273783,"remaining_time":1.004196669},
{"learn":[4.190243116],"iteration":390,"passed_time":0.6429089637,"remaining_time":1.001359486},
{"learn":[4.185852431],"iteration":391,"passed_time":0.6437472845,"remaining_time":0.998465176},
{"learn":[4.180967944],"iteration":392,"passed_time":0.644572433,"remaining_time":0.9955609844},
{"learn":[4.178283162],"iteration":393,"passed_time":0.6454582781,"remaining_time":0.9927607018},
{"learn":[4.176341157],"iteration":394,"passed_time":0.6463540485,"remaining_time":0.9899853147},
{"learn":[4.176041504],"iteration":395,"passed_time":0.6472399452,"remaining_time":0.9872043608},
{"learn":[4.175564513],"iteration":396,"passed_time":0.6480811303,"remaining_time":0.9843650417},
{"learn":[4.170830274],"iteration":397,"passed_time":0.648882565,"remaining_time":0.9814756386},
{"learn":[4.167804808],"iteration":398,"passed_time":0.6497760406,"remaining_time":0.9787353393},
{"learn":[4.165860548],"iteration":399,"passed_time":0.6517873075,"remaining_time":0.9776809612},
{"learn":[4.160950571],"iteration":400,"passed_time":0.6531240517,"remaining_time":0.9756142318},
{"learn":[4.158544115],"iteration":401,"passed_time":0.6541920418,"remaining_time":0.9731513457},
{"learn":[4.154448767],"iteration":402,"passed_time":0.6553877305,"remaining_time":0.9708845536},
{"learn":[4.15197457],"iteration":403,"passed_time":0.6563611806,"remaining_time":0.968295207},
{"learn":[4.149562679],"iteration":404,"passed_time":0.6573992707,"remaining_time":0.9658088051},
{"learn":[4.149327961],"iteration":405,"passed_time":0.6586402055,"remaining_time":0.9636263105},
{"learn":[4.147444889],"iteration":406,"passed_time":0.6596192018,"remaining_time":0.9610667977},
{"learn":[4.147254809],"iteration":407,"passed_time":0.6605090326,"remaining_time":0.9583856552},
{"learn":[4.144589165],"iteration":408,"passed_time":0.6614634258,"remaining_time":0.9558065639},
{"learn":[4.141691034],"iteration":409,"passed_time":0.6623715814,"remaining_time":0.953168861},
{"learn":[4.138893468],"iteration":410,"passed_time":0.663299156,"remaining_time":0.9505674036},
{"learn":[4.136964597],"iteration":411,"passed_time":0.6642765536,"remaining_time":0.9480451784},
{"learn":[4.133773523],"iteration":412,"passed_time":0.6656735209,"remaining_time":0.9461267719},
{"learn":[4.131363444],"iteration":413,"passed_time":0.6669297312,"remaining_time":0.9440116485},
{"learn":[4.130228592],"iteration":414,"passed_time":0.6679350627,"remaining_time":0.9415470161},
{"learn":[4.12884186],"iteration":415,"passed_time":0.6689725768,"remaining_time":0.939134579},
{"learn":[4.12413494],"iteration":416,"passed_time":0.6698799019,"remaining_time":0.9365467213},
{"learn":[4.119422508],"iteration":417,"passed_time":0.6707592891,"remaining_time":0.9339280054},
{"learn":[4.117038244],"iteration":418,"passed_time":0.6716141515,"remaining_time":0.9312835847},
{"learn":[4.116067631],"iteration":419,"passed_time":0.6726179014,"remaining_time":0.9288532925},
{"learn":[4.110343455],"iteration":420,"passed_time":0.6735998975,"remaining_time":0.9263998591},
{"learn":[4.105604544],"iteration":421,"passed_time":0.6744937675,"remaining_time":0.9238326958},
{"learn":[4.103390131],"iteration":422,"passed_time":0.6753088462,"remaining_time":0.9211659676},
{"learn":[4.096724402],"iteration":423,"passed_time":0.676142933,"remaining_time":0.9185337957},
{"learn":[4.093431279],"iteration":424,"passed_time":0.6769820154,"remaining_time":0.9159168444},
{"learn":[4.091412744],"iteration":425,"passed_time":0.6779410338,"remaining_time":0.9134698437},
{"learn":[4.091192901],"iteration":426,"passed_time":0.6787538405,"remaining_time":0.910833608},
{"learn":[4.088994581],"iteration":427,"passed_time":0.6798294511,"remaining_time":0.9085571169},
{"learn":[4.087845355],"iteration":428,"passed_time":0.6806964365,"remaining_time":0.9060085437},
{"learn":[4.083650279],"iteration":429,"passed_time":0.681454609,"remaining_time":0.9033235515},
{"learn":[4.079840652],"iteration":430,"passed_time":0.6821970999,"remaining_time":0.9006267978},
{"learn":[4.075707828],"iteration":431,"passed_time":0.6830651941,"remaining_time":0.8981042366},
{"learn":[4.071345409],"iteration":432,"passed_time":0.6838655256,"remaining_time":0.8955005843},
{"learn":[4.067460475],"iteration":433,"passed_time":0.6848172428,"remaining_time":0.8931026715},
{"learn":[4.064914749],"iteration":434,"passed_time":0.6858629607,"remaining_time":0.8908335007},
{"learn":[4.063823175],"iteration":435,"passed_time":0.6869093108,"remaining_time":0.8885707599},
{"learn":[4.058898471],"iteration":436,"passed_time":0.6884383271,"remaining_time":0.8869354191},
{"learn":[4.054120355],"iteration":437,"passed_time":0.6894207376,"remaining_time":0.8845992112},
{"learn":[4.052715901],"iteration":438,"passed_time":0.6903525052,"remaining_time":0.8822044543},
{"learn":[4.052114167],"iteration":439,"passed_time":0.6913967038,"remaining_time":0.8799594412},
{"learn":[4.051377267],"iteration":440,"passed_time":0.6924536786,"remaining_time":0.8777360688},
{"learn":[4.049275336],"iteration":441,"passed_time":0.6934665863,"remaining_time":0.8754623419},
{"learn":[4.047099198],"iteration":442,"passed_time":0.6943715876,"remaining_time":0.8730586327},
{"learn":[4.044348685],"iteration":443,"passed_time":0.6955066982,"remaining_time":0.8709498293},
{"learn":[4.042822379],"iteration":444,"passed_time":0.6964318214,"remaining_time":0.8685835075},
{"learn":[4.041258611],"iteration":445,"passed_time":0.6974504208,"remaining_time":0.8663397603},
{"learn":[4.040044254],"iteration":446,"passed_time":0.6983499592,"remaining_time":0.8639542001},
{"learn":[4.036860137],"iteration":447,"passed_time":0.6992815702,"remaining_time":0.8616147919},
{"learn":[4.036372284],"iteration":448,"passed_time":0.7001879965,"remaining_time":0.8592507484},
{"learn":[4.03368231],"iteration":449,"passed_time":0.7015432398,"remaining_time":0.8574417375},
{"learn":[4.032439519],"iteration":450,"passed_time":0.7027577332,"remaining_time":0.8554634047},
{"learn":[4.032008634],"iteration":451,"passed_time":0.7037401926,"remaining_time":0.8532071362},
{"learn":[4.030034932],"iteration":452,"passed_time":0.7048723389,"remaining_time":0.8511372393},
{"learn":[4.028173412],"iteration":453,"passed_time":0.7057704475,"remaining_time":0.8487900095},
{"learn":[4.023806097],"iteration":454,"passed_time":0.7066171533,"remaining_time":0.8463875792},
{"learn":[4.020239186],"iteration":455,"passed_time":0.7074384449,"remaining_time":0.8439616535},
{"learn":[4.017384838],"iteration":456,"passed_time":0.7083178621,"remaining_time":0.8416118142},
{"learn":[4.016468229],"iteration":457,"passed_time":0.7091817976,"remaining_time":0.8392500749},
{"learn":[4.014530169],"iteration":458,"passed_time":0.7102778162,"remaining_time":0.8371684064},
{"learn":[4.012884822],"iteration":459,"passed_time":0.711140698,"remaining_time":0.8348173411},
{"learn":[4.008924707],"iteration":460,"passed_time":0.7120568096,"remaining_time":0.8325349683},
{"learn":[4.008286778],"iteration":461,"passed_time":0.7128841329,"remaining_time":0.8301551159},
{"learn":[4.006444202],"iteration":462,"passed_time":0.7137336757,"remaining_time":0.8278077405},
{"learn":[4.003284363],"iteration":463,"passed_time":0.7146323865,"remaining_time":0.8255236188},
{"learn":[3.999811484],"iteration":464,"passed_time":0.7155044375,"remaining_time":0.823214783},
{"learn":[3.997483319],"iteration":465,"passed_time":0.7167654852,"remaining_time":0.8213578736},
{"learn":[3.99708333],"iteration":466,"passed_time":0.7180244031,"remaining_time":0.8195010853},
{"learn":[3.995860263],"iteration":467,"passed_time":0.7191002615,"remaining_time":0.8174387588},
{"learn":[3.994131111],"iteration":468,"passed_time":0.7201634131,"remaining_time":0.8153662523},
{"learn":[3.993125499],"iteration":469,"passed_time":0.7210371835,"remaining_time":0.8130844835},
{"learn":[3.992954084],"iteration":470,"passed_time":0.7218604188,"remaining_time":0.8107519353},
{"learn":[3.990635743],"iteration":471,"passed_time":0.7227726346,"remaining_time":0.8085253201},
{"learn":[3.986678254],"iteration":472,"passed_time":0.7236137758,"remaining_time":0.8062250737},
{"learn":[3.986393291],"iteration":473,"passed_time":0.7244766176,"remaining_time":0.8039550651},
{"learn":[3.986152671],"iteration":474,"passed_time":0.7252855934,"remaining_time":0.8016314454},
{"learn":[3.985596662],"iteration":475,"passed_time":0.7261127674,"remaining_time":0.7993342229},
{"learn":[3.983853457],"iteration":476,"passed_time":0.7269756758,"remaining_time":0.7970823448},
{"learn":[3.983263928],"iteration":477,"passed_time":0.7278938512,"remaining_time":0.7948966325},
{"learn":[3.980067202],"iteration":478,"passed_time":0.7289089814,"remaining_time":0.7928216687},
{"learn":[3.978115407],"iteration":479,"passed_time":0.7298009971,"remaining_time":0.7906177468},
{"learn":[3.972661644],"iteration":480,"passed_time":0.7309401035,"remaining_time":0.7886858913},
{"learn":[3.969938254],"iteration":481,"passed_time":0.7322206897,"remaining_time":0.7869093719},
{"learn":[3.968211434],"iteration":482,"passed_time":0.7331709798,"remaining_time":0.7847813593},
{"learn":[3.966113368],"iteration":483,"passed_time":0.7341748809,"remaining_time":0.7827153689},
{"learn":[3.962246044],"iteration":484,"passed_time":0.7351680117,"remaining_time":0.7806423217},
{"learn":[3.961319703],"iteration":485,"passed_time":0.7366571887,"remaining_time":0.7790983436},
{"learn":[3.96078191],"iteration":486,"passed_time":0.7378461463,"remaining_time":0.7772383431},
{"learn":[3.958913633],"iteration":487,"passed_time":0.73885256,"remaining_time":0.7751895711},
{"learn":[3.957428286],"iteration":488,"passed_time":0.739759624,"remaining_time":0.773041243},
{"learn":[3.952641965],"iteration":489,"passed_time":0.740600738,"remaining_time":0.7708293395},
{"learn":[3.951486786],"iteration":490,"passed_time":0.7414506829,"remaining_time":0.7686321744},
{"learn":[3.94938344],"iteration":491,"passed_time":0.7423233073,"remaining_time":0.7664639027},
{"learn":[3.947297924],"iteration":492,"passed_time":0.7431642396,"remaining_time":0.7642682951},
{"learn":[3.946284886],"iteration":493,"passed_time":0.7440466194,"remaining_time":0.7621206263},
{"learn":[3.943288204],"iteration":494,"passed_time":0.7448733383,"remaining_time":0.7599212846},
{"learn":[3.943076488],"iteration":495,"passed_time":0.7462466286,"remaining_time":0.7582828646},
{"learn":[3.942347078],"iteration":496,"passed_time":0.7475023167,"remaining_time":0.7565264896},
{"learn":[3.940251541],"iteration":497,"passed_time":0.7485385915,"remaining_time":0.7545509496},
{"learn":[3.939011019],"iteration":498,"passed_time":0.7497141423,"remaining_time":0.7527190086},
{"learn":[3.938760512],"iteration":499,"passed_time":0.7505530048,"remaining_time":0.7505530048},
{"learn":[3.934522727],"iteration":500,"passed_time":0.7514374638,"remaining_time":0.7484377135},
{"learn":[3.930091193],"iteration":501,"passed_time":0.7522779439,"remaining_time":0.7462836974},
{"learn":[3.927671752],"iteration":502,"passed_time":0.7531763791,"remaining_time":0.7441921679},
{"learn":[3.927280041],"iteration":503,"passed_time":0.7541744018,"remaining_time":0.7422033795},
{"learn":[3.925987561],"iteration":504,"passed_time":0.7550533101,"remaining_time":0.7401017594},
{"learn":[3.921645957],"iteration":505,"passed_time":0.7559226031,"remaining_time":0.7379955848},
{"learn":[3.920333743],"iteration":506,"passed_time":0.756768365,"remaining_time":0.7358714082},
{"learn":[3.918659461],"iteration":507,"passed_time":0.7576547078,"remaining_time":0.7337915674},
{"learn":[3.916124385],"iteration":508,"passed_time":0.7585677836,"remaining_time":0.7317422038},
{"learn":[3.913849268],"iteration":509,"passed_time":0.759476453,"remaining_time":0.7296930627},
{"learn":[3.912826119],"iteration":510,"passed_time":0.7609591766,"remaining_time":0.7281977248},
{"learn":[3.910034145],"iteration":511,"passed_time":0.7621933063,"remaining_time":0.7264654951},
{"learn":[3.90792379],"iteration":512,"passed_time":0.7633728713,"remaining_time":0.7246834081},
{"learn":[3.907823851],"iteration":513,"passed_time":0.7644619009,"remaining_time":0.722818062},
{"learn":[3.904527401],"iteration":514,"passed_time":0.7653386978,"remaining_time":0.720755861},
{"learn":[3.903378283],"iteration":515,"passed_time":0.7662178078,"remaining_time":0.7187004243},
{"learn":[3.902170135],"iteration":516,"passed_time":0.7670903699,"remaining_time":0.716643421},
{"learn":[3.899435429],"iteration":517,"passed_time":0.7679734096,"remaining_time":0.7146007402},
{"learn":[3.897497505],"iteration":518,"passed_time":0.7688528385,"remaining_time":0.7125591817},
{"learn":[3.896426119],"iteration":519,"passed_time":0.7696951012,"remaining_time":0.7104877858},
{"learn":[3.896044669],"iteration":520,"passed_time":0.7704800584,"remaining_time":0.7083684222},
{"learn":[3.892795942],"iteration":521,"passed_time":0.7713275185,"remaining_time":0.7063114059},
{"learn":[3.892413888],"iteration":522,"passed_time":0.7723227947,"remaining_time":0.70439383},
{"learn":[3.891738985],"iteration":523,"passed_time":0.7732324463,"remaining_time":0.7024019932},
{"learn":[3.88822057],"iteration":524,"passed_time":0.7741802205,"remaining_time":0.7004487709},
{"learn":[3.883837053],"iteration":525,"passed_time":0.7753406058,"remaining_time":0.6986909642},
{"learn":[3.881769742],"iteration":526,"passed_time":0.7765147712,"remaining_time":0.6969477928},
{"learn":[3.880356898],"iteration":527,"passed_time":0.777507657,"remaining_time":0.6950447237},
{"learn":[3.879250273],"iteration":528,"passed_time":0.7784507838,"remaining_time":0.6931007924},
{"learn":[3.877174493],"iteration":529,"passed_time":0.7794690249,"remaining_time":0.6912272485},
{"learn":[3.875854201],"iteration":530,"passed_time":0.7806886252,"remaining_time":0.6895347744},
{"learn":[3.873189396],"iteration":531,"passed_time":0.7816245192,"remaining_time":0.6875945019},
{"learn":[3.871583368],"iteration":532,"passed_time":0.7825664017,"remaining_time":0.685663245},
{"learn":[3.869622679],"iteration":533,"passed_time":0.7837083239,"remaining_time":0.6839102602},
{"learn":[3.866860164],"iteration":534,"passed_time":0.7845949234,"remaining_time":0.6819376437},
{"learn":[3.864498444],"iteration":535,"passed_time":0.7854589717,"remaining_time":0.6799495576},
{"learn":[3.861416322],"iteration":536,"passed_time":0.7863829378,"remaining_time":0.6780173188},
{"learn":[3.860265769],"iteration":537,"passed_time":0.7872370174,"remaining_time":0.6760288142},
{"learn":[3.859328725],"iteration":538,"passed_time":0.7880544049,"remaining_time":0.6740131366},
{"learn":[3.858521278],"iteration":539,"passed_time":0.7888950761,"remaining_time":0.6720217315},
{"learn":[3.85599111],"iteration":540,"passed_time":0.7904365697,"remaining_time":0.6706291784},
{"learn":[3.852379816],"iteration":541,"passed_time":0.7917001234,"remaining_time":0.6690012112},
{"learn":[3.851327537],"iteration":542,"passed_time":0.7927026595,"remaining_time":0.6671549087},
{"learn":[3.847854898],"iteration":543,"passed_time":0.7937725117,"remaining_time":0.6653681348},
{"learn":[3.847083414],"iteration":544,"passed_time":0.7946565419,"remaining_time":0.6634288561},
{"learn":[3.845397429],"iteration":545,"passed_time":0.7955193215,"remaining_time":0.6614757728},
{"learn":[3.841933528],"iteration":546,"passed_time":0.7964025972,"remaining_time":0.65954365},
{"learn":[3.840996474],"iteration":547,"passed_time":0.7972413014,"remaining_time":0.6575785917},
{"learn":[3.838355966],"iteration":548,"passed_time":0.7981238689,"remaining_time":0.6556536701},
{"learn":[3.83342799],"iteration":549,"passed_time":0.7989901343,"remaining_time":0.6537192008},
{"learn":[3.828161535],"iteration":550,"passed_time":0.7998918848,"remaining_time":0.651817525},
{"learn":[3.823502399],"iteration":551,"passed_time":0.8007809135,"remaining_time":0.6499091472},
{"learn":[3.820068862],"iteration":552,"passed_time":0.801608809,"remaining_time":0.6479550409},
{"learn":[3.817951642],"iteration":553,"passed_time":0.8025103384,"remaining_time":0.6460642797},
{"learn":[3.815785958],"iteration":554,"passed_time":0.806235392,"remaining_time":0.64644099},
{"learn":[3.81503012],"iteration":555,"passed_time":0.8076901889,"remaining_time":0.644990007},
{"learn":[3.813529315],"iteration":556,"passed_time":0.8086661643,"remaining_time":0.6431581881},
{"learn":[3.808881326],"iteration":557,"passed_time":0.8097320435,"remaining_time":0.6414006509},
{"learn":[3.808740434],"iteration":558,"passed_time":0.8106301187,"remaining_time":0.6395132063},
{"learn":[3.80714352],"iteration":559,"passed_time":0.8116614982,"remaining_time":0.6377340343},
{"learn":[3.80573346],"iteration":560,"passed_time":0.8125421914,"remaining_time":0.6358396115},
{"learn":[3.803370052],"iteration":561,"passed_time":0.8134306407,"remaining_time":0.633954841},
{"learn":[3.803215211],"iteration":562,"passed_time":0.8141815016,"remaining_time":0.6319668138},
{"learn":[3.801309667],"iteration":563,"passed_time":0.8149938272,"remaining_time":0.6300306891},
{"learn":[3.800003847],"iteration":564,"passed_time":0.8158053039,"remaining_time":0.6280978889},
{"learn":[3.798026138],"iteration":565,"passed_time":0.8166395529,"remaining_time":0.6261865123},
{"learn":[3.794745847],"iteration":566,"passed_time":0.8176360095,"remaining_time":0.624402808},
{"learn":[3.794312041],"iteration":567,"passed_time":0.8185695604,"remaining_time":0.6225740319},
{"learn":[3.792205926],"iteration":568,"passed_time":0.8199068923,"remaining_time":0.6210542541},
{"learn":[3.788991061],"iteration":569,"passed_time":0.8210213267,"remaining_time":0.6193669657},
{"learn":[3.787391572],"iteration":570,"passed_time":0.8220172628,"remaining_time":0.6175926545},
{"learn":[3.7826445],"iteration":571,"passed_time":0.8229933426,"remaining_time":0.6158062074},
{"learn":[3.781700331],"iteration":572,"passed_time":0.8239475619,"remaining_time":0.6140062983},
{"learn":[3.780045374],"iteration":573,"passed_time":0.824878423,"remaining_time":0.6121920003},
{"learn":[3.775462644],"iteration":574,"passed_time":0.8259173031,"remaining_time":0.6104606153},
{"learn":[3.773711943],"iteration":575,"passed_time":0.8269402305,"remaining_time":0.6087198919},
{"learn":[3.772415806],"iteration":576,"passed_time":0.8278795793,"remaining_time":0.6069203848},
{"learn":[3.770170875],"iteration":577,"passed_time":0.8287225987,"remaining_time":0.6050535236},
{"learn":[3.765166479],"iteration":578,"passed_time":0.8295649159,"remaining_time":0.6031896884},
{"learn":[3.763976102],"iteration":579,"passed_time":0.830439709,"remaining_time":0.6013528927},
{"learn":[3.760761708],"iteration":580,"passed_time":0.8313163114,"remaining_time":0.5995207134},
{"learn":[3.758155662],"iteration":581,"passed_time":0.8322691985,"remaining_time":0.5977466065},
{"learn":[3.756844548],"iteration":582,"passed_time":0.8332348642,"remaining_time":0.5959844569},
{"learn":[3.753098923],"iteration":583,"passed_time":0.8350856971,"remaining_time":0.5948555651},
{"learn":[3.751618946],"iteration":584,"passed_time":0.83676887,"remaining_time":0.5936052668},
{"learn":[3.751398464],"iteration":585,"passed_time":0.8378902433,"remaining_time":0.5919565883},
{"learn":[3.749920103],"iteration":586,"passed_time":0.8391598365,"remaining_time":0.5904139906},
{"learn":[3.748237465],"iteration":587,"passed_time":0.8402378142,"remaining_time":0.5887380603},
{"learn":[3.746021536],"iteration":588,"passed_time":0.8413387207,"remaining_time":0.5870801599},
{"learn":[3.74417648],"iteration":589,"passed_time":0.8424610028,"remaining_time":0.5854390019},
{"learn":[3.738788389],"iteration":590,"passed_time":0.8434729021,"remaining_time":0.5837232098},
{"learn":[3.736021611],"iteration":591,"passed_time":0.8446669088,"remaining_time":0.582135302},
{"learn":[3.734546151],"iteration":592,"passed_time":0.8458299045,"remaining_time":0.5805274386},
{"learn":[3.733527479],"iteration":593,"passed_time":0.8468478173,"remaining_time":0.5788219088},
{"learn":[3.733026392],"iteration":594,"passed_time":0.8479931154,"remaining_time":0.5772053979},
{"learn":[3.730314752],"iteration":595,"passed_time":0.8494162452,"remaining_time":0.5757787971},
{"learn":[3.727342596],"iteration":596,"passed_time":0.850468321,"remaining_time":0.5741017309},
{"learn":[3.725459604],"iteration":597,"passed_time":0.8515053612,"remaining_time":0.5724166475},
{"learn":[3.723158842],"iteration":598,"passed_time":0.8525330049,"remaining_time":0.5707274374},
{"learn":[3.722362756],"iteration":599,"passed_time":0.8535610409,"remaining_time":0.5690406939},
{"learn":[3.721443615],"iteration":600,"passed_time":0.8544280518,"remaining_time":0.567249239},
{"learn":[3.720743486],"iteration":601,"passed_time":0.8552372076,"remaining_time":0.5654226057},
{"learn":[3.720215334],"iteration":602,"passed_time":0.8560048411,"remaining_time":0.5635720098},
{"learn":[3.719436563],"iteration":603,"passed_time":0.8568318078,"remaining_time":0.5617639005},
{"learn":[3.715046574],"iteration":604,"passed_time":0.8577082963,"remaining_time":0.559991367},
{"learn":[3.71443396],"iteration":605,"passed_time":0.8585532989,"remaining_time":0.5582013197},
{"learn":[3.712938941],"iteration":606,"passed_time":0.8594105694,"remaining_time":0.5564223291},
{"learn":[3.712814764],"iteration":607,"passed_time":0.8602133946,"remaining_time":0.5546112676},
{"learn":[3.71235348],"iteration":608,"passed_time":0.861414313,"remaining_time":0.5530591074},
{"learn":[3.711223749],"iteration":609,"passed_time":0.8627103547,"remaining_time":0.5515689153},
{"learn":[3.710755648],"iteration":610,"passed_time":0.8640944342,"remaining_time":0.550135409},
{"learn":[3.708668039],"iteration":611,"passed_time":0.8651515512,"remaining_time":0.5484947743},
{"learn":[3.705623591],"iteration":612,"passed_time":0.8661406184,"remaining_time":0.5468130821},
{"learn":[3.704045802],"iteration":613,"passed_time":0.8671350502,"remaining_time":0.5451370185},
{"learn":[3.699915209],"iteration":614,"passed_time":0.8682202312,"remaining_time":0.5435199822},
{"learn":[3.696182221],"iteration":615,"passed_time":0.8692307385,"remaining_time":0.5418581227},
{"learn":[3.694263278],"iteration":616,"passed_time":0.8703518018,"remaining_time":0.5402670018},
{"learn":[3.693810229],"iteration":617,"passed_time":0.8714734256,"remaining_time":0.5386777485},
{"learn":[3.690900932],"iteration":618,"passed_time":0.8724050844,"remaining_time":0.536973081},
{"learn":[3.688020895],"iteration":619,"passed_time":0.8733230753,"remaining_time":0.53526253},
{"learn":[3.685491894],"iteration":620,"passed_time":0.8741633066,"remaining_time":0.5335070744},
{"learn":[3.684328128],"iteration":621,"passed_time":0.8750318868,"remaining_time":0.5317717897},
{"learn":[3.680640153],"iteration":622,"passed_time":0.8759014959,"remaining_time":0.53003991},
{"learn":[3.678932783],"iteration":623,"passed_time":0.8767885241,"remaining_time":0.5283212902},
{"learn":[3.674167041],"iteration":624,"passed_time":0.8780590105,"remaining_time":0.5268354063},
{"learn":[3.672200976],"iteration":625,"passed_time":0.8792431096,"remaining_time":0.525298599},
{"learn":[3.670606604],"iteration":626,"passed_time":0.8802667564,"remaining_time":0.5236674644},
{"learn":[3.665506042],"iteration":627,"passed_time":0.8813292803,"remaining_time":0.5220612934},
{"learn":[3.664214007],"iteration":628,"passed_time":0.8822289248,"remaining_time":0.5203607808},
{"learn":[3.66261643],"iteration":629,"passed_time":0.8830752212,"remaining_time":0.5186314791},
{"learn":[3.662118449],"iteration":630,"passed_time":0.8839084652,"remaining_time":0.5168973434},
{"learn":[3.660871366],"iteration":631,"passed_time":0.8847522018,"remaining_time":0.5151721681},
{"learn":[3.656695243],"iteration":632,"passed_time":0.8856200404,"remaining_time":0.5134637517},
{"learn":[3.654497801],"iteration":633,"passed_time":0.8864950374,"remaining_time":0.5117621194},
{"learn":[3.654189134],"iteration":634,"passed_time":0.887293489,"remaining_time":0.5100190921},
{"learn":[3.653957699],"iteration":635,"passed_time":0.8881777625,"remaining_time":0.5083281534},
{"learn":[3.651920725],"iteration":636,"passed_time":0.8891424499,"remaining_time":0.5066855719},
{"learn":[3.65106705],"iteration":637,"passed_time":0.8900209005,"remaining_time":0.5049961849},
{"learn":[3.650612844],"iteration":638,"passed_time":0.8908801664,"remaining_time":0.5032984978},
{"learn":[3.649884732],"iteration":639,"passed_time":0.8919986255,"remaining_time":0.5017492268},
{"learn":[3.646276182],"iteration":640,"passed_time":0.8935186758,"remaining_time":0.5004262162},
{"learn":[3.645808194],"iteration":641,"passed_time":0.8946146982,"remaining_time":0.4988661401},
{"learn":[3.645042989],"iteration":642,"passed_time":0.8955895076,"remaining_time":0.4972402087},
{"learn":[3.639864499],"iteration":643,"passed_time":0.8966468691,"remaining_time":0.4956619338},
{"learn":[3.637318478],"iteration":644,"passed_time":0.8976800768,"remaining_time":0.4940719803},
{"learn":[3.636344905],"iteration":645,"passed_time":0.898630598,"remaining_time":0.4924384392},
{"learn":[3.634754643],"iteration":646,"passed_time":0.8995059528,"remaining_time":0.490765999},
{"learn":[3.630724975],"iteration":647,"passed_time":0.9003634149,"remaining_time":0.4890862995},
{"learn":[3.629408252],"iteration":648,"passed_time":0.9011900111,"remaining_time":0.4873924405},
{"learn":[3.62790646],"iteration":649,"passed_time":0.902001108,"remaining_time":0.4856929043},
{"learn":[3.627388973],"iteration":650,"passed_time":0.9028793491,"remaining_time":0.4840320935},
{"learn":[3.625163557],"iteration":651,"passed_time":0.9037670307,"remaining_time":0.4823787219},
{"learn":[3.623701985],"iteration":652,"passed_time":0.9047730505,"remaining_time":0.4807905797},
{"learn":[3.622342639],"iteration":653,"passed_time":0.9059131268,"remaining_time":0.4792751405},
{"learn":[3.621130639],"iteration":654,"passed_time":0.9077005929,"remaining_time":0.478101839},
{"learn":[3.619125665],"iteration":655,"passed_time":0.9089178861,"remaining_time":0.476627672},
{"learn":[3.618878783],"iteration":656,"passed_time":0.9099490096,"remaining_time":0.4750570933},
{"learn":[3.616207429],"iteration":657,"passed_time":0.9109710887,"remaining_time":0.4734834534},
{"learn":[3.61206486],"iteration":658,"passed_time":0.9119830214,"remaining_time":0.4719062372},
{"learn":[3.611955873],"iteration":659,"passed_time":0.9128732328,"remaining_time":0.470268029},
{"learn":[3.610713743],"iteration":660,"passed_time":0.9139227676,"remaining_time":0.4687137946},
{"learn":[3.610044025],"iteration":661,"passed_time":0.9149479838,"remaining_time":0.4671486684},
{"learn":[3.607342669],"iteration":662,"passed_time":0.9160275452,"remaining_time":0.4656127945},
{"learn":[3.602510618],"iteration":663,"passed_time":0.9169429458,"remaining_time":0.4639952256},
{"learn":[3.600492392],"iteration":664,"passed_time":0.9179444609,"remaining_time":0.4624231495},
{"learn":[3.597171065],"iteration":665,"passed_time":0.9188407529,"remaining_time":0.4608000172},
{"learn":[3.594358798],"iteration":666,"passed_time":0.9197479514,"remaining_time":0.4591845095},
{"learn":[3.593945251],"iteration":667,"passed_time":0.9205964759,"remaining_time":0.4575419611},
{"learn":[3.593607748],"iteration":668,"passed_time":0.9219355349,"remaining_time":0.4561444874},
{"learn":[3.592238714],"iteration":669,"passed_time":0.9232671139,"remaining_time":0.4547435039},
{"learn":[3.590144654],"iteration":670,"passed_time":0.9245396468,"remaining_time":0.4533137762},
{"learn":[3.587151536],"iteration":671,"passed_time":0.9257839191,"remaining_time":0.4518707224},
{"learn":[3.586070865],"iteration":672,"passed_time":0.9267107977,"remaining_time":0.4502740429},
{"learn":[3.585102746],"iteration":673,"passed_time":0.9276652431,"remaining_time":0.4486926843},
{"learn":[3.584362847],"iteration":674,"passed_time":0.9285788905,"remaining_time":0.4470935398},
{"learn":[3.581407561],"iteration":675,"passed_time":0.9295683232,"remaining_time":0.4455327466},
{"learn":[3.57919422],"iteration":676,"passed_time":0.9304173599,"remaining_time":0.4439066577},
{"learn":[3.577632204],"iteration":677,"passed_time":0.9312886305,"remaining_time":0.4422934204},
{"learn":[3.573911195],"iteration":678,"passed_time":0.9321378344,"remaining_time":0.4406719364},
{"learn":[3.573408216],"iteration":679,"passed_time":0.933256584,"remaining_time":0.4391795689},
{"learn":[3.571076482],"iteration":680,"passed_time":0.9341865768,"remaining_time":0.4375998796},
{"learn":[3.568177107],"iteration":681,"passed_time":0.9350634942,"remaining_time":0.4359973477},
{"learn":[3.564824621],"iteration":682,"passed_time":0.9361991558,"remaining_time":0.4345170313},
{"learn":[3.562475026],"iteration":683,"passed_time":0.937724294,"remaining_time":0.4332176563},
{"learn":[3.561226889],"iteration":684,"passed_time":0.9388484693,"remaining_time":0.4317332377},
{"learn":[3.559383467],"iteration":685,"passed_time":0.9398833325,"remaining_time":0.4302089889},
{"learn":[3.555209766],"iteration":686,"passed_time":0.9407981998,"remaining_time":0.4286314942},
{"learn":[3.55345383],"iteration":687,"passed_time":0.9419059574,"remaining_time":0.4271433993},
{"learn":[3.552300968],"iteration":688,"passed_time":0.9428165172,"remaining_time":0.4255673975},
{"learn":[3.551253986],"iteration":689,"passed_time":0.9436772797,"remaining_time":0.4239709518},
{"learn":[3.549807725],"iteration":690,"passed_time":0.9445488792,"remaining_time":0.4223814814},
{"learn":[3.547992926],"iteration":691,"passed_time":0.945375697,"remaining_time":0.4207741542},
{"learn":[3.545438607],"iteration":692,"passed_time":0.9462522839,"remaining_time":0.4191911272},
{"learn":[3.543313763],"iteration":693,"passed_time":0.9471290135,"remaining_time":0.417610199},
{"learn":[3.542962896],"iteration":694,"passed_time":0.9480094534,"remaining_time":0.4160329256},
{"learn":[3.539800465],"iteration":695,"passed_time":0.9489070403,"remaining_time":0.414465144},
{"learn":[3.53953187],"iteration":696,"passed_time":0.9497770371,"remaining_time":0.4128872916},
{"learn":[3.536332425],"iteration":697,"passed_time":0.9506618672,"remaining_time":0.4113178852},
{"learn":[3.534993327],"iteration":698,"passed_time":0.9522910175,"remaining_time":0.4100709532},
{"learn":[3.531637011],"iteration":699,"passed_time":0.9532960563,"remaining_time":0.4085554527},
{"learn":[3.531040284],"iteration":700,"passed_time":0.9542888688,"remaining_time":0.4070361937},
{"learn":[3.529973872],"iteration":701,"passed_time":0.9553557373,"remaining_time":0.4055498714},
{"learn":[3.527325183],"iteration":702,"passed_time":0.9564038511,"remaining_time":0.404056819},
{"learn":[3.527200815],"iteration":703,"passed_time":0.9573364632,"remaining_time":0.4025164675},
{"learn":[3.523459911],"iteration":704,"passed_time":0.9582376515,"remaining_time":0.4009646911},
{"learn":[3.522729934],"iteration":705,"passed_time":0.95929023,"remaining_time":0.3994778012},
{"learn":[3.522260582],"iteration":706,"passed_time":0.960300535,"remaining_time":0.3979746206},
{"learn":[3.518641591],"iteration":707,"passed_time":0.9612766904,"remaining_time":0.396458748},
{"learn":[3.516856405],"iteration":708,"passed_time":0.9621595368,"remaining_time":0.3949061004},
{"learn":[3.515083413],"iteration":709,"passed_time":0.9629972005,"remaining_time":0.3933368847},
{"learn":[3.514671214],"iteration":710,"passed_time":0.9638169189,"remaining_time":0.3917624326},
{"learn":[3.512617621],"iteration":711,"passed_time":0.9646281851,"remaining_time":0.3901866816},
{"learn":[3.510747971],"iteration":712,"passed_time":0.9657006643,"remaining_time":0.3887182197},
{"learn":[3.508149266],"iteration":713,"passed_time":0.9670464467,"remaining_time":0.3873603414},
{"learn":[3.504557165],"iteration":714,"passed_time":0.968161201,"remaining_time":0.3859104088},
{"learn":[3.501367208],"iteration":715,"passed_time":0.9696328705,"remaining_time":0.3846029822},
{"learn":[3.497593362],"iteration":716,"passed_time":0.9707077212,"remaining_time":0.383138473},
{"learn":[3.496291169],"iteration":717,"passed_time":0.9716904139,"remaining_time":0.3816388534},
{"learn":[3.49330374],"iteration":718,"passed_time":0.9726127879,"remaining_time":0.3801170979},
{"learn":[3.490044385],"iteration":719,"passed_time":0.973821279,"remaining_time":0.3787082752},
{"learn":[3.488891789],"iteration":720,"passed_time":0.9752737433,"remaining_time":0.3773944166},
{"learn":[3.486869081],"iteration":721,"passed_time":0.9763856939,"remaining_time":0.3759490622},
{"learn":[3.486303638],"iteration":722,"passed_time":0.9779129342,"remaining_time":0.3746637383},
{"learn":[3.486035862],"iteration":723,"passed_time":0.9792265884,"remaining_time":0.3732963238},
{"learn":[3.482668951],"iteration":724,"passed_time":0.9811186749,"remaining_time":0.3721484629},
{"learn":[3.47820549],"iteration":725,"passed_time":0.9824855951,"remaining_time":0.3708003486},
{"learn":[3.474392283],"iteration":726,"passed_time":0.9836630158,"remaining_time":0.3693810225},
{"learn":[3.472268163],"iteration":727,"passed_time":0.9850239643,"remaining_time":0.3680309317},
{"learn":[3.471209164],"iteration":728,"passed_time":0.9860543761,"remaining_time":0.3665579368},
{"learn":[3.470049971],"iteration":729,"passed_time":0.9874537039,"remaining_time":0.3652226028},
{"learn":[3.469078654],"iteration":730,"passed_time":0.9888466582,"remaining_time":0.3638847484},
{"learn":[3.468643292],"iteration":731,"passed_time":0.9899721145,"remaining_time":0.362448807},
{"learn":[3.468134848],"iteration":732,"passed_time":0.9909685179,"remaining_time":0.3609667043},
{"learn":[3.467820182],"iteration":733,"passed_time":0.9920478749,"remaining_time":0.3595159874},
{"learn":[3.465776156],"iteration":734,"passed_time":0.9932719265,"remaining_time":0.3581184497},
{"learn":[3.463037608],"iteration":735,"passed_time":0.9943363796,"remaining_time":0.3566641362},
{"learn":[3.45965637],"iteration":736,"passed_time":0.9960027333,"remaining_time":0.3554256701},
{"learn":[3.457275091],"iteration":737,"passed_time":0.9975165601,"remaining_time":0.3541318953},
{"learn":[3.455522955],"iteration":738,"passed_time":0.9987282743,"remaining_time":0.3527308249},
{"learn":[3.451270508],"iteration":739,"passed_time":0.9998095678,"remaining_time":0.3512844428},
{"learn":[3.450978947],"iteration":740,"passed_time":1.001136018,"remaining_time":0.349924735},
{"learn":[3.450608492],"iteration":741,"passed_time":1.002260725,"remaining_time":0.3484949692},
{"learn":[3.448122004],"iteration":742,"passed_time":1.003531855,"remaining_time":0.3471166712},
{"learn":[3.445646714],"iteration":743,"passed_time":1.004808466,"remaining_time":0.3457405476},
{"learn":[3.44411263],"iteration":744,"passed_time":1.005884677,"remaining_time":0.3442960975},
{"learn":[3.443264164],"iteration":745,"passed_time":1.006868992,"remaining_time":0.3428213458},
{"learn":[3.439521363],"iteration":746,"passed_time":1.008009213,"remaining_time":0.3414007107},
{"learn":[3.436809225],"iteration":747,"passed_time":1.009098991,"remaining_time":0.3399638312},
{"learn":[3.435509465],"iteration":748,"passed_time":1.011396339,"remaining_time":0.3389325515},
{"learn":[3.434450277],"iteration":749,"passed_time":1.012878979,"remaining_time":0.3376263263},
{"learn":[3.431786753],"iteration":750,"passed_time":1.014280221,"remaining_time":0.3362926431},
{"learn":[3.430150302],"iteration":751,"passed_time":1.015539545,"remaining_time":0.3349119777},
{"learn":[3.42696281],"iteration":752,"passed_time":1.01669043,"remaining_time":0.3334960641},
{"learn":[3.426870334],"iteration":753,"passed_time":1.017788441,"remaining_time":0.3320636029},
{"learn":[3.425200309],"iteration":754,"passed_time":1.019356391,"remaining_time":0.3307845244},
{"learn":[3.423383783],"iteration":755,"passed_time":1.020515094,"remaining_time":0.3293725965},
{"learn":[3.422752979],"iteration":756,"passed_time":1.021482906,"remaining_time":0.327900061},
{"learn":[3.420845924],"iteration":757,"passed_time":1.022756389,"remaining_time":0.3265264459},
{"learn":[3.418917862],"iteration":758,"passed_time":1.023999765,"remaining_time":0.3251435355},
{"learn":[3.417095735],"iteration":759,"passed_time":1.025476609,"remaining_time":0.3238347186},
{"learn":[3.414391848],"iteration":760,"passed_time":1.026630501,"remaining_time":0.3224240339},
{"learn":[3.41426711],"iteration":761,"passed_time":1.02759686,"remaining_time":0.3209554496},
{"learn":[3.411976013],"iteration":762,"passed_time":1.028647006,"remaining_time":0.3195142075},
{"learn":[3.408614844],"iteration":763,"passed_time":1.029600758,"remaining_time":0.3180442131},
{"learn":[3.407906721],"iteration":764,"passed_time":1.030415145,"remaining_time":0.3165327571},
{"learn":[3.407494015],"iteration":765,"passed_time":1.031227476,"remaining_time":0.3150224927},
{"learn":[3.406287128],"iteration":766,"passed_time":1.032122195,"remaining_time":0.3135390763},
{"learn":[3.404600442],"iteration":767,"passed_time":1.032992146,"remaining_time":0.3120497106},
{"learn":[3.404012662],"iteration":768,"passed_time":1.033864613,"remaining_time":0.3105627122},
{"learn":[3.400398762],"iteration":769,"passed_time":1.034712726,"remaining_time":0.3090700349},
{"learn":[3.399737714],"iteration":770,"passed_time":1.035525394,"remaining_time":0.3075685022},
{"learn":[3.399185251],"iteration":771,"passed_time":1.03635348,"remaining_time":0.3060733076},
{"learn":[3.397245411],"iteration":772,"passed_time":1.037297271,"remaining_time":0.3046138169},
{"learn":[3.396229831],"iteration":773,"passed_time":1.038161718,"remaining_time":0.3031324914},
{"learn":[3.394002836],"iteration":774,"passed_time":1.039208065,"remaining_time":0.3017055673},
{"learn":[3.389617243],"iteration":775,"passed_time":1.040673317,"remaining_time":0.3004005452},
{"learn":[3.385426488],"iteration":776,"passed_time":1.041699794,"remaining_time":0.2989691815},
{"learn":[3.385072258],"iteration":777,"passed_time":1.042626191,"remaining_time":0.2975103013},
{"learn":[3.383842366],"iteration":778,"passed_time":1.043540654,"remaining_time":0.2960494026},
{"learn":[3.380110746],"iteration":779,"passed_time":1.044440822,"remaining_time":0.2945858729},
{"learn":[3.378595218],"iteration":780,"passed_time":1.045308181,"remaining_time":0.2931145859},
{"learn":[3.377371219],"iteration":781,"passed_time":1.046120871,"remaining_time":0.2916296035},
{"learn":[3.375814782],"iteration":782,"passed_time":1.046938327,"remaining_time":0.290147659},
{"learn":[3.374195887],"iteration":783,"passed_time":1.047797254,"remaining_time":0.2886788354},
{"learn":[3.373704309],"iteration":784,"passed_time":1.048631702,"remaining_time":0.2872048611},
{"learn":[3.372971757],"iteration":785,"passed_time":1.049463942,"remaining_time":0.2857319129},
{"learn":[3.371565136],"iteration":786,"passed_time":1.050363266,"remaining_time":0.2842787493},
{"learn":[3.3700309],"iteration":787,"passed_time":1.051385887,"remaining_time":0.2828601625},
{"learn":[3.368186663],"iteration":788,"passed_time":1.052210036,"remaining_time":0.2813895027},
{"learn":[3.366710398],"iteration":789,"passed_time":1.053019507,"remaining_time":0.2799165777},
{"learn":[3.364598042],"iteration":790,"passed_time":1.053971902,"remaining_time":0.2784830942},
{"learn":[3.36348442],"iteration":791,"passed_time":1.055643139,"remaining_time":0.2772396122},
{"learn":[3.362001759],"iteration":792,"passed_time":1.056573056,"remaining_time":0.2758015417},
{"learn":[3.361580401],"iteration":793,"passed_time":1.057496507,"remaining_time":0.2743630736},
{"learn":[3.359543675],"iteration":794,"passed_time":1.058711716,"remaining_time":0.2730011344},
{"learn":[3.35766119],"iteration":795,"passed_time":1.059776677,"remaining_time":0.271601058},
{"learn":[3.354592969],"iteration":796,"passed_time":1.060844661,"remaining_time":0.2702025924},
{"learn":[3.350985986],"iteration":797,"passed_time":1.061978021,"remaining_time":0.2688215042},
{"learn":[3.349589624],"iteration":798,"passed_time":1.063173112,"remaining_time":0.2674565652},
{"learn":[3.349110856],"iteration":799,"passed_time":1.06416403,"remaining_time":0.2660410075},
{"learn":[3.345315441],"iteration":800,"passed_time":1.065155292,"remaining_time":0.2646265955},
{"learn":[3.34397474],"iteration":801,"passed_time":1.066095263,"remaining_time":0.2632005762},
{"learn":[3.343800902],"iteration":802,"passed_time":1.066985864,"remaining_time":0.2617636554},
{"learn":[3.342329465],"iteration":803,"passed_time":1.067993646,"remaining_time":0.26035666},
{"learn":[3.34220347],"iteration":804,"passed_time":1.069317398,"remaining_time":0.2590271958},
{"learn":[3.341279219],"iteration":805,"passed_time":1.070557475,"remaining_time":0.2576776056},
{"learn":[3.337329521],"iteration":806,"passed_time":1.071738317,"remaining_time":0.2563141204},
{"learn":[3.336708453],"iteration":807,"passed_time":1.072842844,"remaining_time":0.254932953},
{"learn":[3.333252703],"iteration":808,"passed_time":1.073955594,"remaining_time":0.253554411},
{"learn":[3.332186769],"iteration":809,"passed_time":1.074925024,"remaining_time":0.2521429068},
{"learn":[3.330594851],"iteration":810,"passed_time":1.075806079,"remaining_time":0.2507118975},
{"learn":[3.327867442],"iteration":811,"passed_time":1.076846548,"remaining_time":0.2493191514},
{"learn":[3.327563111],"iteration":812,"passed_time":1.077769474,"remaining_time":0.2479002358},
{"learn":[3.326308994],"iteration":813,"passed_time":1.078839955,"remaining_time":0.2465162551},
{"learn":[3.326249879],"iteration":814,"passed_time":1.079795174,"remaining_time":0.24510688},
{"learn":[3.322336238],"iteration":815,"passed_time":1.080819463,"remaining_time":0.2437141926},
{"learn":[3.320491154],"iteration":816,"passed_time":1.081851191,"remaining_time":0.2423240735},
{"learn":[3.320434271],"iteration":817,"passed_time":1.082722212,"remaining_time":0.2408990741},
{"learn":[3.319609638],"iteration":818,"passed_time":1.084591334,"remaining_time":0.239696009},
{"learn":[3.316182682],"iteration":819,"passed_time":1.085765608,"remaining_time":0.2383387921},
{"learn":[3.313126612],"iteration":820,"passed_time":1.086866584,"remaining_time":0.2369660397},
{"learn":[3.311222803],"iteration":821,"passed_time":1.087992882,"remaining_time":0.2355994318},
{"learn":[3.309627335],"iteration":822,"passed_time":1.088943415,"remaining_time":0.2341956068},
{"learn":[3.307974895],"iteration":823,"passed_time":1.089898432,"remaining_time":0.2327938399},
{"learn":[3.307321505],"iteration":824,"passed_time":1.09084737,"remaining_time":0.2313918663},
{"learn":[3.306759087],"iteration":825,"passed_time":1.091869037,"remaining_time":0.2300063104},
{"learn":[3.30484037],"iteration":826,"passed_time":1.092892887,"remaining_time":0.2286220913},
{"learn":[3.30201994],"iteration":827,"passed_time":1.09379709,"remaining_time":0.2272138883},
{"learn":[3.299302297],"iteration":828,"passed_time":1.094720304,"remaining_time":0.2258108227},
{"learn":[3.298132671],"iteration":829,"passed_time":1.095567677,"remaining_time":0.2243933797},
{"learn":[3.296976183],"iteration":830,"passed_time":1.096467381,"remaining_time":0.2229879512},
{"learn":[3.293144745],"iteration":831,"passed_time":1.097449578,"remaining_time":0.2216003956},
{"learn":[3.290284404],"iteration":832,"passed_time":1.098921465,"remaining_time":0.2203119864},
{"learn":[3.288285745],"iteration":833,"passed_time":1.100257172,"remaining_time":0.2189960318},
{"learn":[3.286662667],"iteration":834,"passed_time":1.101443751,"remaining_time":0.2176505616},
{"learn":[3.285692682],"iteration":835,"passed_time":1.102558216,"remaining_time":0.2162913246},
{"learn":[3.284565611],"iteration":836,"passed_time":1.103623918,"remaining_time":0.2149231764},
{"learn":[3.283897383],"iteration":837,"passed_time":1.104695978,"remaining_time":0.213556979},
{"learn":[3.280712855],"iteration":838,"passed_time":1.105875837,"remaining_time":0.212212169},
{"learn":[3.280468341],"iteration":839,"passed_time":1.106832229,"remaining_time":0.2108251866},
{"learn":[3.277814895],"iteration":840,"passed_time":1.107771291,"remaining_time":0.2094359516},
{"learn":[3.276316385],"iteration":841,"passed_time":1.108730927,"remaining_time":0.2080516465},
{"learn":[3.27557063],"iteration":842,"passed_time":1.109568909,"remaining_time":0.2066456924},
{"learn":[3.27499628],"iteration":843,"passed_time":1.110409105,"remaining_time":0.2052414934},
{"learn":[3.273569958],"iteration":844,"passed_time":1.111398252,"remaining_time":0.2038659516},
{"learn":[3.269665595],"iteration":845,"passed_time":1.112372327,"remaining_time":0.2024885796},
{"learn":[3.267984685],"iteration":846,"passed_time":1.113842008,"remaining_time":0.2012016851},
{"learn":[3.267702508],"iteration":847,"passed_time":1.115068412,"remaining_time":0.1998707531},
{"learn":[3.266671924],"iteration":848,"passed_time":1.115929426,"remaining_time":0.1984750804},
{"learn":[3.265359825],"iteration":849,"passed_time":1.116761035,"remaining_time":0.1970754767},
{"learn":[3.2618983],"iteration":850,"passed_time":1.117670991,"remaining_time":0.1956909255},
{"learn":[3.260456253],"iteration":851,"passed_time":1.118544071,"remaining_time":0.1943010828},
{"learn":[3.258389147],"iteration":852,"passed_time":1.119419622,"remaining_time":0.1929128774},
{"learn":[3.258108469],"iteration":853,"passed_time":1.120292151,"remaining_time":0.191525356},
{"learn":[3.256424936],"iteration":854,"passed_time":1.121167153,"remaining_time":0.1901394587},
{"learn":[3.254817983],"iteration":855,"passed_time":1.122031697,"remaining_time":0.1887529957},
{"learn":[3.253898449],"iteration":856,"passed_time":1.122882413,"remaining_time":0.1873654434},
{"learn":[3.253023652],"iteration":857,"passed_time":1.123784146,"remaining_time":0.1859875859},
{"learn":[3.252845542],"iteration":858,"passed_time":1.124644156,"remaining_time":0.1846039884},
{"learn":[3.252316026],"iteration":859,"passed_time":1.125481963,"remaining_time":0.183217994},
{"learn":[3.24975301],"iteration":860,"passed_time":1.126324667,"remaining_time":0.1818340635},
{"learn":[3.249151075],"iteration":861,"passed_time":1.127262385,"remaining_time":0.1804665999},
{"learn":[3.246257135],"iteration":862,"passed_time":1.128636256,"remaining_time":0.1791693708},
{"learn":[3.243826471],"iteration":863,"passed_time":1.129801703,"remaining_time":0.1778391569},
{"learn":[3.243190653],"iteration":864,"passed_time":1.13073018,"remaining_time":0.1764723402},
{"learn":[3.24008797],"iteration":865,"passed_time":1.131657197,"remaining_time":0.1751063099},
{"learn":[3.240036811],"iteration":866,"passed_time":1.132579896,"remaining_time":0.17374063},
{"learn":[3.238676314],"iteration":867,"passed_time":1.133466911,"remaining_time":0.1723705441},
{"learn":[3.237848782],"iteration":868,"passed_time":1.134309999,"remaining_time":0.1709949481},
{"learn":[3.236405498],"iteration":869,"passed_time":1.135150494,"remaining_time":0.1696201888},
{"learn":[3.233378068],"iteration":870,"passed_time":1.136043913,"remaining_time":0.1682544946},
{"learn":[3.233169169],"iteration":871,"passed_time":1.136888773,"remaining_time":0.1668827556},
{"learn":[3.232434885],"iteration":872,"passed_time":1.137765895,"remaining_time":0.1655169171},
{"learn":[3.229978115],"iteration":873,"passed_time":1.13863038,"remaining_time":0.1641503751},
{"learn":[3.229648848],"iteration":874,"passed_time":1.139499752,"remaining_time":0.1627856788},
{"learn":[3.227208761],"iteration":875,"passed_time":1.140431767,"remaining_time":0.1614309807},
{"learn":[3.226258869],"iteration":876,"passed_time":1.141404787,"remaining_time":0.1600829974},
{"learn":[3.225331995],"iteration":877,"passed_time":1.142531988,"remaining_time":0.1587572922},
{"learn":[3.221968268],"iteration":878,"passed_time":1.143848665,"remaining_time":0.1574581211},
{"learn":[3.221166317],"iteration":879,"passed_time":1.144970015,"remaining_time":0.1561322747},
{"learn":[3.220047503],"iteration":880,"passed_time":1.145855186,"remaining_time":0.1547749911},
{"learn":[3.21982781],"iteration":881,"passed_time":1.146766732,"remaining_time":0.1534223066},
{"learn":[3.216693405],"iteration":882,"passed_time":1.147740292,"remaining_time":0.1520788382},
{"learn":[3.214798761],"iteration":883,"passed_time":1.148770975,"remaining_time":0.1507437026},
{"learn":[3.214395085],"iteration":884,"passed_time":1.149768208,"remaining_time":0.1494049084},
{"learn":[3.213470696],"iteration":885,"passed_time":1.150703098,"remaining_time":0.1480588636},
{"learn":[3.211595017],"iteration":886,"passed_time":1.151578516,"remaining_time":0.1467061695},
{"learn":[3.210965255],"iteration":887,"passed_time":1.15242234,"remaining_time":0.1453505654},
{"learn":[3.209413583],"iteration":888,"passed_time":1.153319881,"remaining_time":0.1440028198},
{"learn":[3.208331683],"iteration":889,"passed_time":1.154190394,"remaining_time":0.1426527453},
{"learn":[3.207110711],"iteration":890,"passed_time":1.155079514,"remaining_time":0.1413060236},
{"learn":[3.204519413],"iteration":891,"passed_time":1.15593829,"remaining_time":0.139956654},
{"learn":[3.201421296],"iteration":892,"passed_time":1.156791576,"remaining_time":0.1386077253},
{"learn":[3.200691259],"iteration":893,"passed_time":1.158023438,"remaining_time":0.1373047924},
{"learn":[3.200485067],"iteration":894,"passed_time":1.15913818,"remaining_time":0.1359882781},
{"learn":[3.197467568],"iteration":895,"passed_time":1.160079917,"remaining_time":0.1346521333},
{"learn":[3.195838544],"iteration":896,"passed_time":1.160930585,"remaining_time":0.1333064105},
{"learn":[3.195671746],"iteration":897,"passed_time":1.161731478,"remaining_time":0.1319561367},
{"learn":[3.194213094],"iteration":898,"passed_time":1.162599726,"remaining_time":0.1306146522},
{"learn":[3.192884691],"iteration":899,"passed_time":1.163485846,"remaining_time":0.1292762051},
{"learn":[3.188364239],"iteration":900,"passed_time":1.164373027,"remaining_time":0.1279388787},
{"learn":[3.185219478],"iteration":901,"passed_time":1.165245845,"remaining_time":0.1266009898},
{"learn":[3.184120387],"iteration":902,"passed_time":1.166046882,"remaining_time":0.1252564203},
{"learn":[3.183725321],"iteration":903,"passed_time":1.166893175,"remaining_time":0.1239178592},
{"learn":[3.181264554],"iteration":904,"passed_time":1.167977012,"remaining_time":0.1226053217},
{"learn":[3.180741589],"iteration":905,"passed_time":1.168894612,"remaining_time":0.1212760414},
{"learn":[3.179782639],"iteration":906,"passed_time":1.169731194,"remaining_time":0.1199393617},
{"learn":[3.176377564],"iteration":907,"passed_time":1.170578097,"remaining_time":0.1186048292},
{"learn":[3.174078182],"iteration":908,"passed_time":1.171533784,"remaining_time":0.11728226},
{"learn":[3.171242379],"iteration":909,"passed_time":1.172994602,"remaining_time":0.1160104552},
{"learn":[3.170421012],"iteration":910,"passed_time":1.174065674,"remaining_time":0.1147001592},
{"learn":[3.170087224],"iteration":911,"passed_time":1.174995916,"remaining_time":0.1133767989},
{"learn":[3.167303059],"iteration":912,"passed_time":1.176063803,"remaining_time":0.1120674161},
{"learn":[3.16705966],"iteration":913,"passed_time":1.177140546,"remaining_time":0.1107593949},
{"learn":[3.165667683],"iteration":914,"passed_time":1.178178328,"remaining_time":0.1094482599},
{"learn":[3.164689733],"iteration":915,"passed_time":1.179081612,"remaining_time":0.108125388},
{"learn":[3.163311455],"iteration":916,"passed_time":1.179993409,"remaining_time":0.1068042017},
{"learn":[3.159425016],"iteration":917,"passed_time":1.180875732,"remaining_time":0.1054812746},
{"learn":[3.159327058],"iteration":918,"passed_time":1.181704137,"remaining_time":0.104154554},
{"learn":[3.15819426],"iteration":919,"passed_time":1.182573386,"remaining_time":0.1028324683},
{"learn":[3.157086603],"iteration":920,"passed_time":1.183416644,"remaining_time":0.1015091367},
{"learn":[3.153354154],"iteration":921,"passed_time":1.184440614,"remaining_time":0.1002021343},
{"learn":[3.153261317],"iteration":922,"passed_time":1.185274017,"remaining_time":0.09887984754},
{"learn":[3.153168454],"iteration":923,"passed_time":1.186089006,"remaining_time":0.09755710438},
{"learn":[3.152080399],"iteration":924,"passed_time":1.187314897,"remaining_time":0.09626877546},
{"learn":[3.151635144],"iteration":925,"passed_time":1.188403592,"remaining_time":0.0949696175},
{"learn":[3.147762655],"iteration":926,"passed_time":1.189358294,"remaining_time":0.09366036188},
{"learn":[3.147172317],"iteration":927,"passed_time":1.190190517,"remaining_time":0.0923423677},
{"learn":[3.146254125],"iteration":928,"passed_time":1.19102122,"remaining_time":0.09102530311},
{"learn":[3.144869828],"iteration":929,"passed_time":1.191903604,"remaining_time":0.08971317452},
{"learn":[3.143466218],"iteration":930,"passed_time":1.192787899,"remaining_time":0.08840211066},
{"learn":[3.141919643],"iteration":931,"passed_time":1.193667037,"remaining_time":0.08709158636},
{"learn":[3.141054135],"iteration":932,"passed_time":1.194502593,"remaining_time":0.08577885714},
{"learn":[3.139390417],"iteration":933,"passed_time":1.195345955,"remaining_time":0.08446770135},
{"learn":[3.139025283],"iteration":934,"passed_time":1.196184856,"remaining_time":0.08315723596},
{"learn":[3.137824183],"iteration":935,"passed_time":1.197009628,"remaining_time":0.08184681214},
{"learn":[3.135620453],"iteration":936,"passed_time":1.197970339,"remaining_time":0.08054656496},
{"learn":[3.13443178],"iteration":937,"passed_time":1.198870905,"remaining_time":0.0792430662},
{"learn":[3.132765713],"iteration":938,"passed_time":1.199736257,"remaining_time":0.07793813809},
{"learn":[3.131434124],"iteration":939,"passed_time":1.200603054,"remaining_time":0.07663423748},
{"learn":[3.128384262],"iteration":940,"passed_time":1.201955387,"remaining_time":0.07536170864},
{"learn":[3.128120455],"iteration":941,"passed_time":1.203219049,"remaining_time":0.07408355081},
{"learn":[3.126314615],"iteration":942,"passed_time":1.204247699,"remaining_time":0.07279121829},
{"learn":[3.125409666],"iteration":943,"passed_time":1.205170552,"remaining_time":0.07149316837},
{"learn":[3.123072589],"iteration":944,"passed_time":1.206030188,"remaining_time":0.07019223315},
{"learn":[3.122921099],"iteration":945,"passed_time":1.20688326,"remaining_time":0.0688918563},
{"learn":[3.122182662],"iteration":946,"passed_time":1.207757639,"remaining_time":0.06759361655},
{"learn":[3.120040951],"iteration":947,"passed_time":1.208641153,"remaining_time":0.06629677211},
{"learn":[3.118767799],"iteration":948,"passed_time":1.209465006,"remaining_time":0.06499759254},
{"learn":[3.118203218],"iteration":949,"passed_time":1.210325335,"remaining_time":0.06370133341},
{"learn":[3.116343362],"iteration":950,"passed_time":1.211231787,"remaining_time":0.06240836756},
{"learn":[3.11480829],"iteration":951,"passed_time":1.212220623,"remaining_time":0.06112036756},
{"learn":[3.112607903],"iteration":952,"passed_time":1.213271985,"remaining_time":0.05983607902},
{"learn":[3.111661241],"iteration":953,"passed_time":1.214350445,"remaining_time":0.05855358538},
{"learn":[3.110249676],"iteration":954,"passed_time":1.215467656,"remaining_time":0.05727334504},
{"learn":[3.107333579],"iteration":955,"passed_time":1.217222502,"remaining_time":0.05602279299},
{"learn":[3.107149851],"iteration":956,"passed_time":1.218501871,"remaining_time":0.05474982285},
{"learn":[3.106867336],"iteration":957,"passed_time":1.219794949,"remaining_time":0.05347744034},
{"learn":[3.10364681],"iteration":958,"passed_time":1.220891656,"remaining_time":0.0521966193},
{"learn":[3.102703811],"iteration":959,"passed_time":1.222136283,"remaining_time":0.05092234512},
{"learn":[3.101469264],"iteration":960,"passed_time":1.223376416,"remaining_time":0.04964795027},
{"learn":[3.09863569],"iteration":961,"passed_time":1.224445956,"remaining_time":0.04836688806},
{"learn":[3.09645939],"iteration":962,"passed_time":1.225555224,"remaining_time":0.04708779158},
{"learn":[3.096240186],"iteration":963,"passed_time":1.22657214,"remaining_time":0.04580559858},
{"learn":[3.094838828],"iteration":964,"passed_time":1.227727902,"remaining_time":0.04452899127},
{"learn":[3.094176802],"iteration":965,"passed_time":1.228783719,"remaining_time":0.04324911639},
{"learn":[3.093182279],"iteration":966,"passed_time":1.229812335,"remaining_time":0.04196877669},
{"learn":[3.090150687],"iteration":967,"passed_time":1.231152648,"remaining_time":0.04069926109},
{"learn":[3.088612829],"iteration":968,"passed_time":1.232270044,"remaining_time":0.03942246788},
{"learn":[3.087153684],"iteration":969,"passed_time":1.233357525,"remaining_time":0.0381450781},
{"learn":[3.085866843],"iteration":970,"passed_time":1.234331487,"remaining_time":0.0368646891},
{"learn":[3.082669094],"iteration":971,"passed_time":1.235321952,"remaining_time":0.03558540603},
{"learn":[3.081047548],"iteration":972,"passed_time":1.236223718,"remaining_time":0.03430425529},
{"learn":[3.079684322],"iteration":973,"passed_time":1.237084591,"remaining_time":0.03302279197},
{"learn":[3.07613431],"iteration":974,"passed_time":1.237968825,"remaining_time":0.03174279038},
{"learn":[3.074005935],"iteration":975,"passed_time":1.238900854,"remaining_time":0.03046477509},
{"learn":[3.072988853],"iteration":976,"passed_time":1.239761427,"remaining_time":0.02918578589},
{"learn":[3.072344268],"iteration":977,"passed_time":1.240603582,"remaining_time":0.02790723805},
{"learn":[3.070654438],"iteration":978,"passed_time":1.24148083,"remaining_time":0.02663033444},
{"learn":[3.069724506],"iteration":979,"passed_time":1.242400395,"remaining_time":0.0253551101},
{"learn":[3.067763166],"iteration":980,"passed_time":1.243288362,"remaining_time":0.02407999885},
{"learn":[3.066737893],"iteration":981,"passed_time":1.244480484,"remaining_time":0.02281125123},
{"learn":[3.065248174],"iteration":982,"passed_time":1.24629023,"remaining_time":0.0215533407},
{"learn":[3.063186837],"iteration":983,"passed_time":1.247320083,"remaining_time":0.02028162737},
{"learn":[3.062880371],"iteration":984,"passed_time":1.248413277,"remaining_time":0.01901136969},
{"learn":[3.061288645],"iteration":985,"passed_time":1.249446187,"remaining_time":0.01774061522},
{"learn":[3.059970575],"iteration":986,"passed_time":1.250504121,"remaining_time":0.01647067231},
{"learn":[3.059576341],"iteration":987,"passed_time":1.251411286,"remaining_time":0.01519932736},
{"learn":[3.058175919],"iteration":988,"passed_time":1.25234075,"remaining_time":0.01392896688},
{"learn":[3.056830702],"iteration":989,"passed_time":1.253262853,"remaining_time":0.01265922074},
{"learn":[3.056336579],"iteration":990,"passed_time":1.25415315,"remaining_time":0.01138988734},
{"learn":[3.055810414],"iteration":991,"passed_time":1.255030212,"remaining_time":0.01012121139},
{"learn":[3.055476518],"iteration":992,"passed_time":1.255921855,"remaining_time":0.008853426977},
{"learn":[3.053331734],"iteration":993,"passed_time":1.256774678,"remaining_time":0.007586165058},
{"learn":[3.050890374],"iteration":994,"passed_time":1.257688732,"remaining_time":0.006320043882},
{"learn":[3.04972623],"iteration":995,"passed_time":1.258669858,"remaining_time":0.005054899028},
{"learn":[3.047217327],"iteration":996,"passed_time":1.259774593,"remaining_time":0.003790695865},
{"learn":[3.047155483],"iteration":997,"passed_time":1.260986871,"remaining_time":0.002527027797},
{"learn":[3.04430671],"iteration":998,"passed_time":1.262069683,"remaining_time":0.001263333016},
{"learn":[3.042664195],"iteration":999,"passed_time":1.263153025,"remaining_time":0}
]}